0.03388575091958046,10.202595710754395,-0.014649965800344944
0.04929574579000473,10.048727989196777,-0.15000925958156586
0.019226450473070145,10.219107627868652,0.07363814115524292
-0.04305916279554367,10.366671562194824,0.09889307618141174
0.0008287053788080812,10.172446250915527,-0.01798391342163086
0.10535518079996109,10.246101379394531,-0.12020722776651382
-0.01741029880940914,10.14093017578125,-0.00037818471901118755
0.09181655198335648,9.850702285766602,-0.03241788223385811
0.12182416766881943,9.99363899230957,-0.036276984959840775
0.008003381080925465,9.887944221496582,0.03730534762144089
0.04423561692237854,10.146187782287598,-0.03069390542805195
0.10514950752258301,10.124817848205566,-0.2006365954875946
0.08628617972135544,10.172433853149414,0.0758216455578804
0.06879374384880066,10.013650894165039,0.06709860265254974
0.15701384842395782,10.126444816589355,-0.0020052834879606962
0.06354732066392899,10.336655616760254,-0.08765948563814163
-0.0009557303856126964,9.978038787841797,0.03809752315282822
0.02637496404349804,10.247725486755371,0.029493356123566628
0.2177206128835678,10.100748062133789,0.07119399309158325
0.04269089549779892,10.108175277709961,0.07096215337514877
0.03268754482269287,9.889385223388672,0.09940388053655624
0.15422704815864563,10.154583930969238,0.09710180759429932
0.14765235781669617,9.971351623535156,0.0526345893740654
0.000605732318945229,9.979093551635742,0.030667047947645187
-0.09491647034883499,10.094566345214844,0.054791294038295746
0.12554024159908295,10.24022102355957,0.011766296811401844
0.07245902717113495,10.259199142456055,-0.010044279508292675
-0.0005288259126245975,10.187495231628418,-0.14430560171604156
0.10531683266162872,10.316062927246094,0.05107720196247101
0.08906008303165436,9.991606712341309,0.005936257541179657
0.08978185057640076,10.27219009399414,0.024675970897078514
0.06871267408132553,10.372441291809082,-0.22016577422618866
0.13668487966060638,10.020783424377441,0.031230701133608818
-0.1325003206729889,10.05842399597168,0.05036403611302376
