0.032879702746868134,10.040792465209961,0.07455803453922272
-0.013254068791866302,10.010868072509766,-0.011961648240685463
-0.016835715621709824,10.022978782653809,-0.004874361213296652
-0.006393153686076403,10.03244686126709,0.003583068260923028
-0.02292364276945591,10.031183242797852,0.07886948436498642
0.014395037665963173,10.030964851379395,0.04327715188264847
-0.03689369931817055,10.026841163635254,-0.030088594183325768
0.02666275016963482,10.020209312438965,-0.057782504707574844
-0.017049413174390793,10.03104019165039,-0.025617819279432297
-0.010482633486390114,10.018896102905273,0.01725682243704796
0.022099332883954048,9.98647689819336,0.01180965080857277
-0.001836257055401802,10.028844833374023,0.04016973823308945
0.0015387540915980935,10.024603843688965,-0.024078266695141792
-0.015123540535569191,10.026617050170898,0.09293452650308609
0.0630873292684555,10.032580375671387,-0.07161614298820496
-0.038559794425964355,10.013070106506348,-0.010740881785750389
0.010626355186104774,10.025079727172852,-0.00755528686568141
0.015958968549966812,10.037181854248047,-0.11981849372386932
-0.07469936460256577,10.042276382446289,0.11180797219276428
-0.00041285029146820307,10.04157543182373,0.13421165943145752
-0.005244842264801264,10.032979965209961,0.021825943142175674
0.017558256164193153,10.029708862304688,-0.004986061714589596
0.00673433393239975,10.01032543182373,-0.037575289607048035
-0.036980509757995605,10.023776054382324,-0.049025602638721466
-0.011243405751883984,10.055583000183105,0.02416653372347355
-0.023469066247344017,10.029730796813965,-0.037784393876791
0.007212512660771608,10.036775588989258,0.02126040868461132
0.03990934416651726,10.041399002075195,0.06316482275724411
-0.026905324310064316,10.016214370727539,-0.006562522146850824
-0.03743486478924751,10.02164363861084,-0.004535157233476639
-0.018954450264573097,10.018417358398438,-0.006352250464260578
0.023648319765925407,10.008914947509766,-0.061229560524225235
-0.0032899961806833744,10.028425216674805,0.05411102622747421
-0.02215154841542244,10.033495903015137,-0.06142847612500191
-0.012821919284760952,10.025895118713379,-0.08311721682548523
-0.02857329696416855,10.019617080688477,0.016782257705926895
0.05856620892882347,10.000052452087402,0.07362468540668488
-0.02609694004058838,10.013777732849121,-0.09144879877567291
0.019235579296946526,10.031696319580078,-0.027480322867631912
0.009585846215486526,10.022611618041992,-0.06989479064941406
-0.03041240945458412,10.027695655822754,-0.08654074370861053
0.01004230510443449,10.03407096862793,-0.04218102619051933
-0.007188298739492893,10.013518333435059,0.016724321991205215
0.0006383301806636155,10.027359008789062,0.02396383136510849
-0.0252439733594656,10.011494636535645,-0.01095976959913969
-0.023754846304655075,10.01340103149414,-0.06197086721658707
0.0014077831292524934,10.03049087524414,0.00904723722487688
-0.007883272133767605,10.020180702209473,-0.05866916477680206
-0.01786741428077221,10.012887001037598,-0.051732052117586136
0.02616380900144577,10.028878211975098,-0.04299943521618843
0.008845840580761433,10.020474433898926,-0.020595695823431015
0.007899158634245396,10.018745422363281,0.0043692076578736305
0.003240319201722741,10.021591186523438,-0.01969767175614834
-0.03901351988315582,10.009930610656738,-0.10233572870492935
0.006805503275245428,10.016117095947266,-0.09481485933065414
-0.021298177540302277,10.033217430114746,-0.1399049460887909
0.011834803968667984,10.0215482711792,0.030972661450505257
-0.04757526516914368,10.015083312988281,-0.09311974048614502
-0.020877543836832047,10.029868125915527,-0.08798221498727798
-0.021225731819868088,10.029271125793457,-0.005619248375296593
-0.03871019557118416,10.054520606994629,0.025853438302874565
-0.037040483206510544,10.039573669433594,-0.09102156013250351
-0.029359107837080956,10.039440155029297,-0.11811833828687668
0.011019793339073658,10.02679443359375,-0.03430445119738579
-0.003926559817045927,10.0211181640625,0.08541515469551086
-0.033880267292261124,10.033757209777832,-0.04122444614768028
0.030855411663651466,10.018464088439941,-0.04418366029858589
-0.010057845152914524,10.0178804397583,-0.011718004941940308
-0.014750560745596886,10.023673057556152,0.10566622763872147
-0.01782052032649517,10.024918556213379,-0.005853577051311731
-0.0463559590280056,10.010856628417969,-0.030503960326313972
-0.02078205719590187,10.04249382019043,0.010565349832177162
0.006556191015988588,10.003108024597168,-0.07098155468702316
-0.011801446788012981,10.046846389770508,-0.04548536241054535
-0.033325809985399246,10.029688835144043,-0.0503661148250103
-0.014744672924280167,10.037216186523438,0.021080950275063515
0.014893138781189919,10.011598587036133,-0.02030295506119728
-0.026685353368520737,10.042282104492188,-0.02078445814549923
-0.007719302084296942,10.040684700012207,-0.03805464133620262
-0.021094223484396935,10.036681175231934,-0.05073515698313713
0.04818204790353775,10.045024871826172,-0.003525905776768923
0.012849592603743076,10.027283668518066,0.006682386621832848
-0.00925919134169817,10.050950050354004,-0.02190328575670719
0.01925530657172203,10.013951301574707,-0.020044639706611633
0.001776195946149528,10.00972843170166,0.0024849041365087032
0.019533177837729454,10.021310806274414,0.027363020926713943
-0.035901062190532684,10.017874717712402,-0.032838694751262665
-0.005015197210013866,10.000587463378906,-0.007377180736511946
0.006399847101420164,10.02322006225586,0.027034545317292213
0.02209950052201748,10.021912574768066,-0.0006705166888423264
0.013131711632013321,10.041263580322266,0.04302055016160011
0.004523026291280985,10.010772705078125,-0.07139456272125244
-0.015811381861567497,10.031632423400879,-0.02244655042886734
-0.01809142529964447,10.015435218811035,0.016309553757309914
-0.039205875247716904,10.033848762512207,0.05191393196582794
-0.014202862977981567,10.037864685058594,-0.049704913049936295
0.009161530062556267,10.03372573852539,0.014312377199530602
-0.02698136493563652,10.030326843261719,-0.013876356184482574
-0.01495377067476511,10.027852058410645,0.055197764188051224
0.015958117321133614,10.042719841003418,0.026879500597715378
-0.015366414561867714,10.004698753356934,-0.03829564154148102
