0.06544994562864304,9.91331958770752,0.3429001569747925
-0.011576155200600624,9.818081855773926,-0.08674577623605728
-0.03463238850235939,10.022228240966797,-0.047941386699676514
-0.07357566058635712,9.961638450622559,-0.12866121530532837
0.003473527729511261,9.908817291259766,0.1337130069732666
-0.08506805449724197,10.120936393737793,0.24878846108913422
-0.012650827877223492,9.980790138244629,-0.01920546591281891
-0.027285616844892502,9.931896209716797,0.0471465103328228
-0.0808643028140068,10.083475112915039,0.048944104462862015
-0.11949771642684937,9.961286544799805,0.08695920556783676
-0.03611632063984871,9.947364807128906,-0.022403467446565628
-0.027685271576046944,9.854242324829102,0.038904543966054916
-0.09473758190870285,9.97238826751709,-0.01804819330573082
0.06258229166269302,9.892333030700684,-0.029368573799729347
-0.010337799787521362,10.074633598327637,-0.00047370768152177334
-0.036503106355667114,9.993273735046387,-0.012371694669127464
0.07352971285581589,10.046195030212402,0.04929644986987114
0.04057826101779938,9.951417922973633,-0.10432250052690506
-0.0170747023075819,9.91543960571289,-0.1485496461391449
-0.06635337322950363,9.941847801208496,0.036342181265354156
0.013682088814675808,10.0448579788208,-0.034868691116571426
0.01980086788535118,10.009048461914062,-0.0672435611486435
0.039954088628292084,9.974260330200195,-0.05701775476336479
-0.01908210664987564,10.069626808166504,0.06558102369308472
-0.028540058061480522,10.104227066040039,-0.07945773005485535
-0.0033966409973800182,10.081748962402344,-0.043836887925863266
-0.0299086757004261,9.934493064880371,0.26869234442710876
-0.04642850533127785,9.89758014678955,-0.03814476355910301
-0.09206449240446091,10.023632049560547,0.04442105069756508
-0.008570093661546707,10.007536888122559,0.1603647619485855
-0.021612003445625305,10.055601119995117,0.02594911865890026
-0.08163377642631531,10.181546211242676,0.09891559183597565
-0.06135713681578636,10.062540054321289,0.1468256413936615
0.039015449583530426,10.0960054397583,0.033338628709316254
0.019837936386466026,9.988043785095215,-0.13111519813537598
0.038252148777246475,9.9016752243042,0.0639248639345169
-0.03880574554204941,10.074790000915527,-0.01034566666930914
-0.013558128848671913,9.985993385314941,-0.13226374983787537
-0.06546977162361145,9.974968910217285,0.03480121120810509
-0.05916230380535126,9.991520881652832,0.17417599260807037
-0.05230344831943512,9.92575740814209,-0.12412282824516296
-0.07226046174764633,9.872984886169434,0.05872678384184837
-0.08231296390295029,9.959662437438965,0.011424309574067593
0.07049433887004852,9.8634614944458,0.05600544437766075
0.05385332182049751,9.933273315429688,-0.0921066403388977
-0.034385062754154205,10.024604797363281,-0.033113010227680206
-0.05379221588373184,9.9644193649292,0.1350281983613968
-0.09267573803663254,10.18658447265625,-0.11092547327280045
-0.04449436813592911,9.734420776367188,-0.04567570984363556
0.049220871180295944,10.049147605895996,0.19070886075496674
0.001302006421610713,9.93008041381836,0.015609764494001865
-0.08686304092407227,10.070893287658691,-0.12945044040679932
0.04425930976867676,9.964377403259277,-0.014265451580286026
-0.11254469305276871,10.016057014465332,-0.2037554234266281
-0.009258998557925224,10.133098602294922,0.0013991349842399359
-0.10282046347856522,9.924418449401855,0.08918170630931854
0.0197579488158226,9.976544380187988,0.08978667110204697
0.04746973142027855,9.973780632019043,-0.15652354061603546
-0.014860061928629875,9.928468704223633,0.012084980495274067
-0.08506051450967789,10.078214645385742,0.11317087709903717
-0.056173067539930344,10.031736373901367,-0.03295687213540077
0.07152075320482254,10.126602172851562,0.07375553995370865
-0.02299749106168747,10.058009147644043,-0.21426913142204285
-0.1075223833322525,9.986686706542969,0.09445033967494965
-0.06274131685495377,10.039801597595215,0.02842137962579727
-0.04338221624493599,10.022140502929688,-0.1032179743051529
-0.06255834549665451,9.951125144958496,0.15158094465732574
0.0012217732146382332,10.104530334472656,0.26039549708366394
-0.026886824518442154,9.952682495117188,-0.041751570999622345
-0.04397363215684891,10.066875457763672,0.05974164605140686
-0.10803041607141495,9.924354553222656,-0.043857742100954056
0.047695696353912354,9.98345947265625,0.09850891679525375
-0.02536030486226082,9.944307327270508,0.030954789370298386
0.06527259945869446,9.864907264709473,0.005180107429623604
-0.011120795272290707,10.028292655944824,0.08543597906827927
0.025794271379709244,9.951729774475098,0.1620011031627655
-0.1461005061864853,9.97767448425293,0.10321803390979767
-0.023511243984103203,10.012007713317871,-0.035607095807790756
-0.02130541019141674,10.114401817321777,-0.014336842112243176
-0.011987509205937386,10.10055923461914,-0.029951712116599083
0.01196189783513546,10.00883960723877,-0.1857057809829712
-0.01999920792877674,9.885551452636719,-0.027473032474517822
-0.018374128267169,9.980033874511719,0.12816031277179718
0.008193138055503368,10.028993606567383,0.07068655639886856
-0.015261959284543991,10.108965873718262,0.08712233603000641
-0.0026972040068358183,10.184367179870605,0.14363637566566467
0.04687957838177681,10.134303092956543,0.09336226433515549
-0.06429588049650192,10.056307792663574,0.08149126172065735
-0.09557930380105972,10.031828880310059,0.14916938543319702
-0.10362572222948074,9.925496101379395,0.03154918923974037
-0.14768829941749573,9.957357406616211,-0.18861742317676544
0.01340834517031908,10.111305236816406,-0.011816966347396374
0.03206668049097061,10.126546859741211,0.11331765353679657
0.0808754488825798,10.045738220214844,0.07602301239967346
-0.11438092589378357,10.094964027404785,0.10181207209825516
0.04165550321340561,10.207497596740723,-0.14848296344280243
-0.03784868121147156,10.001214981079102,-0.21069170534610748
0.04681519791483879,9.968668937683105,0.02324649691581726
0.033047087490558624,9.95745849609375,-0.05748734995722771
0.01547178067266941,9.905522346496582,0.1403324007987976
