0.05461364611983299,9.693812370300293,0.05823708698153496
0.09576058387756348,9.858826637268066,0.010861401446163654
0.08058012276887894,9.780434608459473,-0.028031064197421074
0.07998289912939072,10.154745101928711,0.01288177166134119
0.0899474248290062,9.943072319030762,0.041181161999702454
0.14023201167583466,9.707796096801758,0.018807996064424515
0.04661082848906517,9.83745002746582,0.07260789722204208
0.10506906360387802,9.551976203918457,-0.07609567791223526
0.0029636919498443604,9.876875877380371,-0.03033572994172573
0.09270799905061722,9.780677795410156,0.012107262387871742
0.04848722368478775,9.825294494628906,-0.031377773731946945
0.033524297177791595,9.910093307495117,0.09628615528345108
0.03217722102999687,9.974751472473145,-0.08183345198631287
0.09693346917629242,9.899700164794922,-0.012380961328744888
0.021289698779582977,9.984228134155273,-0.004641654435545206
0.08426026254892349,9.726880073547363,0.01839660294353962
0.11707503348588943,9.810633659362793,-1.1191663361387327e-05
0.024003393948078156,9.628281593322754,-0.030271723866462708
0.0006661051884293556,9.655952453613281,-0.013877876102924347
0.1499331295490265,9.794317245483398,0.036548156291246414
0.06432865560054779,9.80686092376709,-0.05378782004117966
0.10866913944482803,9.686830520629883,0.031327053904533386
-0.006363037042319775,9.765734672546387,-0.05358489602804184
0.0673101544380188,9.930315971374512,0.017150646075606346
0.09873073548078537,9.5763578414917,0.10143864154815674
0.0642111673951149,9.725226402282715,0.017314961180090904
0.09166380017995834,9.691035270690918,0.07409803569316864
0.09594360738992691,9.643251419067383,0.05796379968523979
0.02598084695637226,9.905291557312012,-0.045695945620536804
0.056796830147504807,10.036308288574219,-0.035388581454753876
0.09526766091585159,9.790928840637207,0.024263111874461174
0.06772144138813019,9.95954704284668,0.00432319613173604
0.0689246654510498,9.787023544311523,0.03793851286172867
0.09691730886697769,9.803162574768066,0.04175630956888199
0.08347906172275543,9.606375694274902,0.1329503357410431
0.13396428525447845,9.805020332336426,-0.021447062492370605
0.04790355637669563,9.645772933959961,-0.041846465319395065
0.07915115356445312,9.83754825592041,-0.03416455537080765
0.10848870873451233,9.621824264526367,-0.06597625464200974
0.0561656691133976,9.800520896911621,-0.01625702902674675
0.01372382789850235,9.957263946533203,0.031855177134275436
0.06581974774599075,9.66857624053955,0.0599508062005043
0.10742449760437012,9.848201751708984,0.053545236587524414
0.09901394695043564,9.631377220153809,-0.012247590348124504
0.04799993336200714,9.813423156738281,-0.011853652074933052
0.08862853050231934,9.63681697845459,0.06606805324554443
0.010711980983614922,10.100643157958984,0.036203783005476
0.059249065816402435,9.822157859802246,0.00910848006606102
0.04217030853033066,9.915120124816895,0.019073495641350746
0.04510602727532387,9.720242500305176,-0.05183057487010956
0.06153019517660141,9.772216796875,-0.04186754301190376
0.01390914712101221,9.747038841247559,-0.11925315856933594
0.05646258965134621,9.916901588439941,0.01296253502368927
0.03322669491171837,9.895907402038574,0.0661894828081131
0.06834045797586441,10.00383472442627,-0.031161347404122353
0.02422466315329075,9.83134651184082,0.011324863880872726
0.10901575535535812,9.670441627502441,0.11716108024120331
0.10835955291986465,9.9791898727417,0.03646254166960716
-0.0015296984929591417,9.71444320678711,-0.06661297380924225
0.05386944115161896,9.925393104553223,-0.013816285878419876
0.0489807091653347,9.740256309509277,-0.07839947938919067
0.024997182190418243,9.736577987670898,-0.0647171288728714
0.0836276262998581,9.698447227478027,-0.0036551582161337137
0.027901429682970047,9.566078186035156,0.06096377968788147
0.13456997275352478,9.805152893066406,0.039293646812438965
0.06559860706329346,9.834783554077148,-0.07215813547372818
0.04459744691848755,9.692808151245117,-0.005509987473487854
0.12534956634044647,9.619534492492676,-0.014637364074587822
0.08556264638900757,9.477696418762207,-0.026354562491178513
0.17257282137870789,9.776084899902344,0.012449544854462147
0.0535011924803257,9.695477485656738,-0.02279251627624035
0.07927442342042923,10.045265197753906,0.051065828651189804
0.05519913136959076,9.7158842086792,-0.06780492514371872
0.027600187808275223,9.989056587219238,0.007307881023734808
0.11670639365911484,9.837167739868164,-0.00645753787830472
0.09480858594179153,9.8545560836792,0.0435049906373024
0.11885275691747665,9.926026344299316,-0.017120935022830963
0.06247377395629883,10.037896156311035,0.0015480492729693651
0.013159496709704399,9.9514799118042,0.013787087984383106
0.14172111451625824,9.706491470336914,0.043443575501441956
0.038830019533634186,9.744690895080566,-0.029233673587441444
0.13878445327281952,9.831046104431152,0.019853197038173676
0.030595941469073296,10.119544982910156,-0.04764331504702568
0.08962373435497284,9.84283447265625,-0.06432049721479416
0.08595112711191177,9.685908317565918,0.06531645357608795
0.0008309081313200295,9.997255325317383,0.024654969573020935
0.0286564901471138,9.772836685180664,-0.039956752210855484
0.06912373006343842,9.653369903564453,0.03568333387374878
0.009903078898787498,9.935808181762695,-0.05861901119351387
0.061668552458286285,9.944075584411621,-0.14096148312091827
0.09315270185470581,9.704708099365234,0.044423989951610565
0.12578484416007996,9.782090187072754,0.001594516565091908
0.01869533397257328,9.62607192993164,-0.1147582083940506
0.03464300557971001,9.893969535827637,-0.006397861987352371
0.04225156083703041,9.754201889038086,-0.08159574866294861
0.07608310133218765,9.74177074432373,0.1058269813656807
0.0216335691511631,9.871222496032715,-0.0160592682659626
0.05328007787466049,9.797011375427246,0.04546152800321579
0.0229218490421772,10.000428199768066,0.011578812263906002
0.06630980968475342,9.746816635131836,0.018532298505306244
