0.0754690170288086,10.105474472045898,-0.10810664296150208
0.019249599426984787,10.065535545349121,0.054720666259527206
-0.001418523257598281,10.136372566223145,0.09205860644578934
0.08080419152975082,10.106644630432129,0.062182821333408356
0.00838000513613224,10.08554744720459,0.05357835069298744
-0.005645803175866604,10.047903060913086,-0.024463454261422157
0.002641832921653986,10.105816841125488,-0.08691521733999252
-0.018941320478916168,10.092852592468262,0.07003022730350494
0.03473062813282013,10.136035919189453,-0.0075597139075398445
0.001364892814308405,10.103777885437012,0.04798160865902901
0.08677653968334198,10.11112117767334,0.053845830261707306
-0.02476065419614315,10.175689697265625,0.037260714918375015
-0.022817814722657204,10.059736251831055,0.04158446565270424
0.0738641768693924,10.09980297088623,-0.007523480337113142
0.020035602152347565,10.056408882141113,0.039280395954847336
0.06398537755012512,10.124751091003418,0.0873015820980072
0.015335220843553543,10.124927520751953,-0.05598008632659912
0.038627222180366516,10.117451667785645,-0.09187895059585571
0.00592549704015255,10.085308074951172,0.006035590544342995
0.07990214973688126,10.116353034973145,-0.20053544640541077
-0.018780754879117012,10.09811019897461,0.05806664377450943
-0.01663457602262497,10.07966423034668,-0.0956399217247963
0.03473608195781708,10.172751426696777,0.03886393830180168
0.022286081686615944,10.07075309753418,0.03675024211406708
0.0005890438333153725,10.086443901062012,-0.02003619074821472
0.009779089130461216,10.078783988952637,0.0043928190134465694
-0.00980209931731224,10.069132804870605,0.028668904677033424
0.010605859570205212,10.159259796142578,0.043169233947992325
0.07140318304300308,10.0809965133667,-0.002120380289852619
0.020763535052537918,10.083963394165039,-0.056412942707538605
-0.01790226809680462,10.097105979919434,-0.15374568104743958
0.06228131055831909,10.083200454711914,-0.008551187813282013
0.05850997939705849,10.049992561340332,0.05289648845791817
-0.03246070444583893,10.075167655944824,-0.18355436623096466
0.05691411346197128,10.13239860534668,0.05141250789165497
0.05716048181056976,10.055984497070312,0.087399922311306
0.04911820963025093,10.104154586791992,-0.0046629286371171474
0.035882119089365005,10.159577369689941,0.03294147551059723
-0.009205159731209278,10.092341423034668,0.037310000509023666
0.034592196345329285,10.09090518951416,-0.13127313554286957
0.07773749530315399,10.072763442993164,-0.058554910123348236
0.0250975601375103,10.099502563476562,0.022379761561751366
0.011691593565046787,10.036765098571777,0.03138040378689766
0.035106558352708817,10.124903678894043,-0.026385631412267685
0.017085913568735123,10.05485725402832,0.1360379159450531
0.06248048320412636,10.10893726348877,-0.005622791592031717
0.0715443417429924,10.055004119873047,-0.0386093370616436
0.03571254014968872,10.109811782836914,-0.0648300051689148
0.03243795782327652,10.101876258850098,0.09958091378211975
0.12108780443668365,10.070618629455566,0.04608837887644768
0.101070836186409,10.075162887573242,0.039089180529117584
0.09001827239990234,10.055400848388672,0.051154620945453644
0.01105695590376854,10.126346588134766,-0.10282628983259201
0.0602647066116333,10.098159790039062,0.01586296409368515
0.05725017189979553,10.094794273376465,0.03789307549595833
0.03820314630866051,10.07194709777832,0.05989493429660797
-0.04054681211709976,10.116667747497559,0.06698521971702576
0.011504583992064,10.081706047058105,0.022083915770053864
0.02521359734237194,10.068471908569336,-0.04500015452504158
0.049201641231775284,10.077611923217773,0.05206076055765152
-0.033978838473558426,10.091456413269043,0.0544918030500412
0.015909841284155846,10.107707977294922,0.06512921303510666
-0.008630191907286644,10.132845878601074,-0.21315427124500275
0.06120546534657478,10.041857719421387,0.007329350803047419
0.01607036031782627,10.084808349609375,0.08945859968662262
0.0008835116168484092,10.127350807189941,-0.16351088881492615
0.05485696718096733,10.098733901977539,-0.03594886139035225
-0.008429985493421555,10.106664657592773,0.06731816381216049
-0.01312611997127533,10.121298789978027,-0.0918135866522789
0.032380249351263046,10.073773384094238,-0.02315119095146656
0.029425527900457382,10.10435676574707,-0.13432174921035767
0.046778373420238495,10.159964561462402,0.08831388503313065
0.11219782382249832,10.095852851867676,0.09481952339410782
0.040976788848638535,10.078107833862305,0.08202783763408661
0.0319623164832592,10.103973388671875,-0.05031260475516319
0.03662644699215889,10.054608345031738,0.058630287647247314
0.07369809597730637,10.077509880065918,0.03611339256167412
-0.0020293104462325573,10.078397750854492,-0.02575552836060524
0.04993107542395592,10.137370109558105,-0.07196605950593948
-0.0027893553487956524,10.093644142150879,-0.23091861605644226
0.022167520597577095,10.104208946228027,-0.10162555426359177
0.05927009880542755,10.106965065002441,0.08943008631467819
0.01124387513846159,10.068899154663086,0.067229263484478
0.11131653934717178,10.083359718322754,-0.15316259860992432
0.014580639079213142,10.031766891479492,-0.058838725090026855
0.10335809737443924,10.114062309265137,0.07446649670600891
0.04971618950366974,10.122176170349121,0.06553167849779129
0.031617872416973114,10.030152320861816,-0.05924418568611145
0.09661214798688889,10.094271659851074,0.01894054003059864
-0.0025783637538552284,10.079684257507324,0.1291646510362625
0.09266868978738785,10.143731117248535,-0.13083112239837646
0.04477342590689659,10.094283103942871,0.020975038409233093
-0.016905605792999268,10.105206489562988,0.06291278451681137
-0.013499305583536625,10.064435958862305,-0.2802482843399048
0.017384925857186317,10.037118911743164,-0.021543830633163452
0.05238344520330429,10.098188400268555,-0.12301693111658096
0.014941155910491943,10.104714393615723,0.05989597365260124
0.011306975968182087,10.102818489074707,0.07906659692525864
0.11506178975105286,10.085771560668945,0.0073226261883974075
0.026282262057065964,10.072596549987793,0.037396516650915146
0.010925880633294582,10.087178230285645,0.059013016521930695
-0.008764572441577911,10.111141204833984,0.04253844916820526
0.07881583273410797,10.06836986541748,0.06918608397245407
