0.33469757437705994,11.38538932800293,2.122624158859253
-0.12967896461486816,10.726189613342285,2.1511828899383545
-0.5421617031097412,9.747267723083496,2.3359498977661133
-0.8825023174285889,9.705365180969238,2.272639751434326
-0.8825023174285889,9.705365180969238,2.272639751434326
-0.8831587433815002,9.707357406616211,2.277712821960449
-0.8831587433815002,9.707357406616211,2.277712821960449
-0.8840713500976562,9.710491180419922,2.284000873565674
-0.8840713500976562,9.710491180419922,2.284000873565674
-0.8847718238830566,9.713217735290527,2.2875475883483887
-0.8847718238830566,9.713217735290527,2.2875475883483887
-0.8853208422660828,9.715622901916504,2.289682388305664
-0.8853208422660828,9.715622901916504,2.289682388305664
-0.8857852816581726,9.71931266784668,2.2909739017486572
-0.8857852816581726,9.71931266784668,2.2909739017486572
-0.8856286406517029,9.722437858581543,2.2905519008636475
-0.8856286406517029,9.722437858581543,2.2905519008636475
-0.8866143226623535,9.724064826965332,2.288363218307495
-0.8866143226623535,9.724064826965332,2.288363218307495
-0.8865143060684204,9.72693157196045,2.282717227935791
-0.8865143060684204,9.72693157196045,2.282717227935791
-0.8850894570350647,9.729679107666016,2.275214195251465
-0.8850894570350647,9.729679107666016,2.275214195251465
-0.8830549120903015,9.732246398925781,2.266169786453247
-0.8830549120903015,9.732246398925781,2.266169786453247
-0.8785904049873352,9.736641883850098,2.24872088432312
-0.8785904049873352,9.736641883850098,2.24872088432312
-0.8737480044364929,9.740739822387695,2.230905294418335
-0.8737480044364929,9.740739822387695,2.230905294418335
-0.8686999678611755,9.744592666625977,2.2126381397247314
-0.8686999678611755,9.744592666625977,2.2126381397247314
-0.8598641157150269,9.750736236572266,2.1829967498779297
-0.8598641157150269,9.750736236572266,2.1829967498779297
-0.8598641157150269,9.750736236572266,2.1829967498779297
-0.8514256477355957,9.75613784790039,2.156576633453369
-0.8392813205718994,9.763277053833008,2.1207025051116943
-0.8392813205718994,9.763277053833008,2.1207025051116943
-0.8297304511070251,9.768460273742676,2.09389328956604
-0.8297304511070251,9.768460273742676,2.09389328956604
-0.8176644444465637,9.774601936340332,2.061819553375244
-0.8176644444465637,9.774601936340332,2.061819553375244
-0.8025142550468445,9.779740333557129,2.0212228298187256
-0.8025142550468445,9.779740333557129,2.0212228298187256
-0.7909071445465088,9.783354759216309,1.9922947883605957
-0.7909071445465088,9.783354759216309,1.9922947883605957
-0.7909071445465088,9.783354759216309,1.9922947883605957
-0.7763702273368835,9.787792205810547,1.9593470096588135
-0.7629027366638184,9.791361808776855,1.931100606918335
-0.7629027366638184,9.791361808776855,1.931100606918335
-0.7421126961708069,9.796300888061523,1.8927671909332275
-0.7421126961708069,9.796300888061523,1.8927671909332275
-0.7242987155914307,9.799891471862793,1.864725112915039
-0.7242987155914307,9.799891471862793,1.864725112915039
-0.7080987691879272,9.802496910095215,1.8424102067947388
-0.7080987691879272,9.802496910095215,1.8424102067947388
-0.6838852167129517,9.80569076538086,1.814801812171936
-0.6838852167129517,9.80569076538086,1.814801812171936
-0.6637900471687317,9.807726860046387,1.79738187789917
-0.6637900471687317,9.807726860046387,1.79738187789917
-0.6459219455718994,9.809024810791016,1.7856961488723755
-0.6459219455718994,9.809024810791016,1.7856961488723755
-0.6199631094932556,9.810403823852539,1.775779128074646
-0.6199631094932556,9.810403823852539,1.775779128074646
-0.599279522895813,9.81074333190918,1.7740607261657715
-0.599279522895813,9.81074333190918,1.7740607261657715
-0.5817692875862122,9.809932708740234,1.7770977020263672
-0.5817692875862122,9.809932708740234,1.7770977020263672
-0.556705892086029,9.808615684509277,1.789982795715332
-0.556705892086029,9.808615684509277,1.789982795715332
-0.5368119478225708,9.807405471801758,1.807388424873352
-0.5368119478225708,9.807405471801758,1.807388424873352
-0.519745409488678,9.806074142456055,1.8281259536743164
-0.519745409488678,9.806074142456055,1.8281259536743164
-0.4957633316516876,9.804340362548828,1.8661184310913086
-0.4957633316516876,9.804340362548828,1.8661184310913086
-0.4957633316516876,9.804340362548828,1.8661184310913086
-0.4769943058490753,9.803101539611816,1.9028974771499634
-0.46100398898124695,9.801973342895508,1.9388989210128784
-0.46100398898124695,9.801973342895508,1.9388989210128784
-0.4386610686779022,9.800662994384766,1.9947234392166138
-0.4386610686779022,9.800662994384766,1.9947234392166138
-0.4386610686779022,9.800662994384766,1.9947234392166138
-0.42120394110679626,9.799882888793945,2.041483163833618
-0.4062555432319641,9.799280166625977,2.0833394527435303
-0.4062555432319641,9.799280166625977,2.0833394527435303
-0.3852688670158386,9.798812866210938,2.143422842025757
-0.3852688670158386,9.798812866210938,2.143422842025757
-0.3687305748462677,9.798846244812012,2.1899185180664062
-0.3687305748462677,9.798846244812012,2.1899185180664062
-0.3557111620903015,9.798216819763184,2.2258408069610596
-0.3557111620903015,9.798216819763184,2.2258408069610596
-0.3370368480682373,9.798029899597168,2.2728419303894043
-0.3370368480682373,9.798029899597168,2.2728419303894043
-0.32205861806869507,9.798384666442871,2.30655574798584
-0.32205861806869507,9.798384666442871,2.30655574798584
-0.3091433644294739,9.798835754394531,2.333341598510742
-0.3091433644294739,9.798835754394531,2.333341598510742
-0.2906987965106964,9.799874305725098,2.368825912475586
-0.2906987965106964,9.799874305725098,2.368825912475586
-0.27598485350608826,9.800989151000977,2.3948118686676025
-0.27598485350608826,9.800989151000977,2.3948118686676025
-0.2632918059825897,9.802084922790527,2.414952516555786
-0.2632918059825897,9.802084922790527,2.414952516555786
-0.2452407032251358,9.804121971130371,2.4394822120666504
-0.2452407032251358,9.804121971130371,2.4394822120666504
-0.23092858493328094,9.806161880493164,2.45512318611145
-0.23092858493328094,9.806161880493164,2.45512318611145
-0.21333715319633484,9.809124946594238,2.469965934753418
-0.21333715319633484,9.809124946594238,2.469965934753418
-0.20124393701553345,9.811469078063965,2.477693557739258
-0.20124393701553345,9.811469078063965,2.477693557739258
-0.18758535385131836,9.814480781555176,2.4845573902130127
-0.18758535385131836,9.814480781555176,2.4845573902130127
-0.1761568933725357,9.814741134643555,2.4886083602905273
-0.1761568933725357,9.814741134643555,2.4886083602905273
-0.16012626886367798,9.815959930419922,2.4923064708709717
-0.16012626886367798,9.815959930419922,2.4923064708709717
-0.14759916067123413,9.817487716674805,2.493917465209961
-0.14759916067123413,9.817487716674805,2.493917465209961
-0.13697046041488647,9.818778991699219,2.494352340698242
-0.13697046041488647,9.818778991699219,2.494352340698242
-0.1222156211733818,9.821093559265137,2.494141101837158
-0.1222156211733818,9.821093559265137,2.494141101837158
-0.11080417782068253,9.82321834564209,2.4935500621795654
-0.11080417782068253,9.82321834564209,2.4935500621795654
-0.10117699950933456,9.824966430664062,2.4928572177886963
-0.10117699950933456,9.824966430664062,2.4928572177886963
-0.08792396634817123,9.827739715576172,2.491799831390381
-0.08792396634817123,9.827739715576172,2.491799831390381
-0.07776248455047607,9.830098152160645,2.4910027980804443
-0.07776248455047607,9.830098152160645,2.4910027980804443
-0.06922291219234467,9.83204460144043,2.4902827739715576
-0.06922291219234467,9.83204460144043,2.4902827739715576
-0.057531483471393585,9.83497142791748,2.4892733097076416
-0.057531483471393585,9.83497142791748,2.4892733097076416
-0.057531483471393585,9.83497142791748,2.4892733097076416
-0.048944465816020966,9.836732864379883,2.4881856441497803
-0.042457401752471924,9.836901664733887,2.4864535331726074
-0.042457401752471924,9.836901664733887,2.4864535331726074
-0.03346184641122818,9.837616920471191,2.4846131801605225
-0.03346184641122818,9.837616920471191,2.4846131801605225
-0.02652135118842125,9.83846664428711,2.4835755825042725
-0.02652135118842125,9.83846664428711,2.4835755825042725
-0.020766111090779305,9.839088439941406,2.4825007915496826
-0.020766111090779305,9.839088439941406,2.4825007915496826
-0.012813126668334007,9.840348243713379,2.480997323989868
-0.012813126668334007,9.840348243713379,2.480997323989868
-0.006697788368910551,9.841581344604492,2.479675769805908
-0.006697788368910551,9.841581344604492,2.479675769805908
-0.0016119342762976885,9.842584609985352,2.478074789047241
-0.0016119342762976885,9.842584609985352,2.478074789047241
0.005399007815867662,9.844306945800781,2.475574254989624
0.005399007815867662,9.844306945800781,2.475574254989624
0.01076483353972435,9.845843315124512,2.473525285720825
0.01076483353972435,9.845843315124512,2.473525285720825
0.015218579210340977,9.847094535827637,2.4718332290649414
0.015218579210340977,9.847094535827637,2.4718332290649414
0.02131388895213604,9.849066734313965,2.4695217609405518
0.02131388895213604,9.849066734313965,2.4695217609405518
0.02131388895213604,9.849066734313965,2.4695217609405518
0.025952612981200218,9.850767135620117,2.4676241874694824
0.029219726100564003,9.85020923614502,2.4647748470306396
0.029219726100564003,9.85020923614502,2.4647748470306396
0.0337381511926651,9.850003242492676,2.4605634212493896
0.0337381511926651,9.850003242492676,2.4605634212493896
0.0337381511926651,9.850003242492676,2.4605634212493896
0.037207189947366714,9.850183486938477,2.45729660987854
0.04003037139773369,9.850214958190918,2.454343318939209
0.04003037139773369,9.850214958190918,2.454343318939209
0.04391938075423241,9.850626945495605,2.449939727783203
0.04391938075423241,9.850626945495605,2.449939727783203
0.04689856618642807,9.851186752319336,2.446204423904419
0.04689856618642807,9.851186752319336,2.446204423904419
0.04933430999517441,9.851583480834961,2.4427521228790283
0.04933430999517441,9.851583480834961,2.4427521228790283
0.0526791587471962,9.852394104003906,2.43794846534729
0.0526791587471962,9.852394104003906,2.43794846534729
0.0552343875169754,9.853175163269043,2.434248924255371
0.0552343875169754,9.853175163269043,2.434248924255371
0.05731535330414772,9.853797912597656,2.430847406387329
0.05731535330414772,9.853797912597656,2.430847406387329
0.060122642666101456,9.854910850524902,2.425487995147705
0.060122642666101456,9.854910850524902,2.425487995147705
0.0622352696955204,9.855965614318848,2.4205687046051025
0.0622352696955204,9.855965614318848,2.4205687046051025
0.06351276487112045,9.854445457458496,2.415588140487671
0.06351276487112045,9.854445457458496,2.415588140487671
0.06528151035308838,9.852954864501953,2.4086644649505615
0.06528151035308838,9.852954864501953,2.4086644649505615
0.06662049144506454,9.8522310256958,2.4031574726104736
0.06662049144506454,9.8522310256958,2.4031574726104736
0.06765854358673096,9.851511001586914,2.398293972015381
0.06765854358673096,9.851511001586914,2.398293972015381
0.06908468902111053,9.850990295410156,2.3914146423339844
0.06908468902111053,9.850990295410156,2.3914146423339844
0.07015469670295715,9.85092830657959,2.3858139514923096
0.07015469670295715,9.85092830657959,2.3858139514923096
0.07098960876464844,9.850833892822266,2.3806684017181396
0.07098960876464844,9.850833892822266,2.3806684017181396
0.07212623208761215,9.851133346557617,2.372938871383667
0.07212623208761215,9.851133346557617,2.372938871383667
0.07317303121089935,9.851724624633789,2.3649227619171143
0.07317303121089935,9.851724624633789,2.3649227619171143
0.07367069274187088,9.852113723754883,2.3608100414276123
0.07367069274187088,9.852113723754883,2.3608100414276123
0.0746215432882309,9.853033065795898,2.352435827255249
0.0746215432882309,9.853033065795898,2.352435827255249
0.0754021480679512,9.853105545043945,2.34535551071167
0.0754021480679512,9.853105545043945,2.34535551071167
0.07614357024431229,9.851526260375977,2.3384008407592773
0.07614357024431229,9.851526260375977,2.3384008407592773
0.0771552175283432,9.849984169006348,2.3286983966827393
0.0771552175283432,9.849984169006348,2.3286983966827393
0.07792311906814575,9.84923267364502,2.321000814437866
0.07792311906814575,9.84923267364502,2.321000814437866
0.07858669757843018,9.84848690032959,2.314063787460327
0.07858669757843018,9.84848690032959,2.314063787460327
0.07950487732887268,9.84794807434082,2.304004192352295
0.07950487732887268,9.84794807434082,2.304004192352295
0.08022702485322952,9.847878456115723,2.2960028648376465
0.08022702485322952,9.847878456115723,2.2960028648376465
0.08086876571178436,9.84778881072998,2.2885756492614746
0.08086876571178436,9.84778881072998,2.2885756492614746
0.08179793506860733,9.8480806350708,2.277977228164673
0.08179793506860733,9.8480806350708,2.277977228164673
0.08254966139793396,9.848628044128418,2.2694876194000244
0.08254966139793396,9.848628044128418,2.2694876194000244
0.08322824537754059,9.84912395477295,2.261969566345215
0.08322824537754059,9.84912395477295,2.261969566345215
0.08421365171670914,9.850223541259766,2.251451253890991
0.08421365171670914,9.850223541259766,2.251451253890991
0.08501426875591278,9.85136890411377,2.243417978286743
0.08501426875591278,9.85136890411377,2.243417978286743
0.08537133783102036,9.849102020263672,2.235259532928467
0.08537133783102036,9.849102020263672,2.235259532928467
0.08597088605165482,9.846759796142578,2.2241692543029785
0.08597088605165482,9.846759796142578,2.2241692543029785
0.08652350306510925,9.845407485961914,2.2159032821655273
0.08652350306510925,9.845407485961914,2.2159032821655273
0.08703114092350006,9.844018936157227,2.208871364593506
0.08703114092350006,9.844018936157227,2.208871364593506
0.08783634006977081,9.842548370361328,2.199512243270874
0.08783634006977081,9.842548370361328,2.199512243270874
0.08783634006977081,9.842548370361328,2.199512243270874
0.08854368329048157,9.841665267944336,2.1925902366638184
0.08918317407369614,9.840699195861816,2.186938762664795
0.08918317407369614,9.840699195861816,2.186938762664795
0.09017366170883179,9.839577674865723,2.180790901184082
0.09017366170883179,9.839577674865723,2.180790901184082
0.09100250154733658,9.838807106018066,2.1773176193237305
0.09100250154733658,9.838807106018066,2.1773176193237305
0.09171876311302185,9.837943077087402,2.1750521659851074
0.09171876311302185,9.837943077087402,2.1750521659851074
0.09273965656757355,9.836833000183105,2.1730892658233643
0.09273965656757355,9.836833000183105,2.1730892658233643
0.09273965656757355,9.836833000183105,2.1730892658233643
0.0936305895447731,9.834897994995117,2.172456979751587
0.09457718580961227,9.830893516540527,2.1722099781036377
0.09457718580961227,9.830893516540527,2.1722099781036377
0.09577280282974243,9.825942993164062,2.1732051372528076
0.09577280282974243,9.825942993164062,2.1732051372528076
0.09577280282974243,9.825942993164062,2.1732051372528076
0.09661484509706497,9.822456359863281,2.175161361694336
0.0973040983080864,9.819154739379883,2.1781020164489746
0.0973040983080864,9.819154739379883,2.1781020164489746
0.09812185913324356,9.814828872680664,2.1861085891723633
0.09812185913324356,9.814828872680664,2.1861085891723633
0.09812185913324356,9.814828872680664,2.1861085891723633
0.098610058426857,9.811701774597168,2.195394992828369
0.09894309192895889,9.808900833129883,2.2049543857574463
0.09894309192895889,9.808900833129883,2.2049543857574463
0.09918191283941269,9.805608749389648,2.2202534675598145
0.09918191283941269,9.805608749389648,2.2202534675598145
0.09914649277925491,9.802947998046875,2.237931728363037
0.09914649277925491,9.802947998046875,2.237931728363037
0.0990176871418953,9.80187702178955,2.247661828994751
0.0990176871418953,9.80187702178955,2.247661828994751
0.098532535135746,9.800317764282227,2.268414258956909
0.098532535135746,9.800317764282227,2.268414258956909
0.098532535135746,9.800317764282227,2.268414258956909
0.09823290258646011,9.7988920211792,2.284287214279175
0.09842489659786224,9.7962007522583,2.296814203262329
0.09842489659786224,9.7962007522583,2.296814203262329
0.09836722165346146,9.793529510498047,2.3137826919555664
0.09836722165346146,9.793529510498047,2.3137826919555664
0.09810513257980347,9.792155265808105,2.3265106678009033
0.09810513257980347,9.792155265808105,2.3265106678009033
0.09788040816783905,9.791010856628418,2.336409568786621
0.09788040816783905,9.791010856628418,2.336409568786621
0.09739004075527191,9.790189743041992,2.348159074783325
0.09739004075527191,9.790189743041992,2.348159074783325
0.09690547734498978,9.790102005004883,2.3552770614624023
0.09690547734498978,9.790102005004883,2.3552770614624023
0.09652687609195709,9.790096282958984,2.3596527576446533
0.09652687609195709,9.790096282958984,2.3596527576446533
0.09590695798397064,9.79074478149414,2.3632662296295166
0.09590695798397064,9.79074478149414,2.3632662296295166
0.09539219737052917,9.791747093200684,2.3642053604125977
0.09539219737052917,9.791747093200684,2.3642053604125977
0.09501643478870392,9.79277229309082,2.3635168075561523
0.09501643478870392,9.79277229309082,2.3635168075561523
0.09444286674261093,9.794875144958496,2.360684633255005
0.09444286674261093,9.794875144958496,2.360684633255005
0.09395863115787506,9.797049522399902,2.356631278991699
0.09395863115787506,9.797049522399902,2.356631278991699
0.09422275424003601,9.79637622833252,2.3519246578216553
0.09422275424003601,9.79637622833252,2.3519246578216553
0.0944124087691307,9.796594619750977,2.343560218811035
0.0944124087691307,9.796594619750977,2.343560218811035
0.09444529563188553,9.797592163085938,2.335796594619751
0.09444529563188553,9.797592163085938,2.335796594619751
0.0945187658071518,9.798576354980469,2.328310966491699
0.0945187658071518,9.798576354980469,2.328310966491699
0.09448271989822388,9.800853729248047,2.3170177936553955
0.09448271989822388,9.800853729248047,2.3170177936553955
0.09448271989822388,9.800853729248047,2.3170177936553955
0.09435849636793137,9.803263664245605,2.3076136112213135
0.09428653866052628,9.805438995361328,2.299187183380127
0.09428653866052628,9.805438995361328,2.299187183380127
0.09407063573598862,9.809141159057617,2.2870094776153564
0.09407063573598862,9.809141159057617,2.2870094776153564
0.09384585171937943,9.812520980834961,2.2771718502044678
0.09384585171937943,9.812520980834961,2.2771718502044678
0.09368801862001419,9.815533638000488,2.26859712600708
0.09368801862001419,9.815533638000488,2.26859712600708
0.09339121729135513,9.8202543258667,2.2563464641571045
0.09339121729135513,9.8202543258667,2.2563464641571045
0.09312904626131058,9.824302673339844,2.246748685836792
0.09312904626131058,9.824302673339844,2.246748685836792
0.09354657679796219,9.82574462890625,2.238272190093994
0.09354657679796219,9.82574462890625,2.238272190093994
0.09399674087762833,9.828453063964844,2.226795196533203
0.09399674087762833,9.828453063964844,2.226795196533203
0.09399674087762833,9.828453063964844,2.226795196533203
0.09428825229406357,9.83099365234375,2.2180395126342773
0.09461674094200134,9.83308219909668,2.210498571395874
0.09461674094200134,9.83308219909668,2.210498571395874
0.09501083940267563,9.836432456970215,2.1999423503875732
0.09501083940267563,9.836432456970215,2.1999423503875732
0.09501083940267563,9.836432456970215,2.1999423503875732
0.09530705213546753,9.839298248291016,2.19164776802063
0.09565490484237671,9.841635704040527,2.184729814529419
0.09565490484237671,9.841635704040527,2.184729814529419
0.09615086019039154,9.845002174377441,2.176539182662964
0.09615086019039154,9.845002174377441,2.176539182662964
0.09615086019039154,9.845002174377441,2.176539182662964
0.09670019894838333,9.848261833190918,2.1696269512176514
0.09698601812124252,9.849845886230469,2.166486978530884
0.09698601812124252,9.849845886230469,2.166486978530884
0.09757763147354126,9.852884292602539,2.160966634750366
0.09757763147354126,9.852884292602539,2.160966634750366
0.09825906157493591,9.853978157043457,2.156773328781128
0.09825906157493591,9.853978157043457,2.156773328781128
0.09932838380336761,9.85230827331543,2.1527390480041504
0.09932838380336761,9.85230827331543,2.1527390480041504
0.10064242035150528,9.850513458251953,2.14849853515625
0.10064242035150528,9.850513458251953,2.14849853515625
0.1018139198422432,9.848860740661621,2.1463780403137207
0.1018139198422432,9.848860740661621,2.1463780403137207
0.10234431177377701,9.847991943359375,2.1469082832336426
0.10234431177377701,9.847991943359375,2.1469082832336426
0.1032872125506401,9.846216201782227,2.1511147022247314
0.1032872125506401,9.846216201782227,2.1511147022247314
0.10387061536312103,9.84500503540039,2.1570658683776855
0.10387061536312103,9.84500503540039,2.1570658683776855
0.10494201630353928,9.842016220092773,2.163445234298706
0.10494201630353928,9.842016220092773,2.163445234298706
0.10609825700521469,9.838595390319824,2.1748433113098145
0.10609825700521469,9.838595390319824,2.1748433113098145
0.1067187711596489,9.836441040039062,2.185828924179077
0.1067187711596489,9.836441040039062,2.185828924179077
0.10718537867069244,9.834478378295898,2.196413993835449
0.10718537867069244,9.834478378295898,2.196413993835449
0.1074802428483963,9.832393646240234,2.213097333908081
0.1074802428483963,9.832393646240234,2.213097333908081
0.1074802428483963,9.832393646240234,2.213097333908081
0.10743482410907745,9.831208229064941,2.2276105880737305
0.10730594396591187,9.830150604248047,2.240870952606201
0.10730594396591187,9.830150604248047,2.240870952606201
0.10684453696012497,9.829206466674805,2.2606754302978516
0.10684453696012497,9.829206466674805,2.2606754302978516
0.10684453696012497,9.829206466674805,2.2606754302978516
0.10627707093954086,9.828906059265137,2.276489019393921
0.10573577135801315,9.828746795654297,2.2893998622894287
0.10573577135801315,9.828746795654297,2.2893998622894287
0.10478508472442627,9.829073905944824,2.3062071800231934
0.10478508472442627,9.829073905944824,2.3062071800231934
0.10427790880203247,9.829225540161133,2.317904233932495
0.10427790880203247,9.829225540161133,2.317904233932495
0.10456115007400513,9.828506469726562,2.3259458541870117
0.10456115007400513,9.828506469726562,2.3259458541870117
0.10465946793556213,9.828202247619629,2.3348095417022705
0.10465946793556213,9.828202247619629,2.3348095417022705
0.10455095022916794,9.828426361083984,2.3398003578186035
0.10455095022916794,9.828426361083984,2.3398003578186035
0.10452023148536682,9.828658103942871,2.3425300121307373
0.10452023148536682,9.828658103942871,2.3425300121307373
0.10431317985057831,9.829509735107422,2.3440985679626465
0.10431317985057831,9.829509735107422,2.3440985679626465
0.10403577238321304,9.830774307250977,2.3428163528442383
0.10403577238321304,9.830774307250977,2.3428163528442383
0.1038854643702507,9.831560134887695,2.341176748275757
0.1038854643702507,9.831560134887695,2.341176748275757
0.10355020314455032,9.833467483520508,2.3360400199890137
0.10355020314455032,9.833467483520508,2.3360400199890137
0.10321702063083649,9.835369110107422,2.3304953575134277
0.10321702063083649,9.835369110107422,2.3304953575134277
0.1029793918132782,9.837198257446289,2.324504852294922
0.1029793918132782,9.837198257446289,2.324504852294922
0.10255907475948334,9.84029483795166,2.314465284347534
0.10255907475948334,9.84029483795166,2.314465284347534
0.10255907475948334,9.84029483795166,2.314465284347534
0.1021616980433464,9.843123435974121,2.3055951595306396
0.1027960479259491,9.844157218933105,2.293882369995117
0.1027960479259491,9.844157218933105,2.293882369995117
0.10322154313325882,9.845113754272461,2.2854413986206055
0.10322154313325882,9.845113754272461,2.2854413986206055
0.10349153727293015,9.846847534179688,2.275686740875244
0.10349153727293015,9.846847534179688,2.275686740875244
0.10379641503095627,9.848417282104492,2.2669453620910645
0.10379641503095627,9.848417282104492,2.2669453620910645
0.10407989472150803,9.851212501525879,2.254453420639038
0.10407989472150803,9.851212501525879,2.254453420639038
0.10407989472150803,9.851212501525879,2.254453420639038
0.10421274602413177,9.853795051574707,2.244617462158203
0.1044013649225235,9.856040000915527,2.2361667156219482
0.1044013649225235,9.856040000915527,2.2361667156219482
0.10457760840654373,9.859537124633789,2.2243969440460205
0.10457760840654373,9.859537124633789,2.2243969440460205
0.10466199368238449,9.862438201904297,2.2152793407440186
0.10466199368238449,9.862438201904297,2.2152793407440186
0.10479521751403809,9.8648681640625,2.2075138092041016
0.10479521751403809,9.8648681640625,2.2075138092041016
0.10495011508464813,9.868386268615723,2.196484327316284
0.10495011508464813,9.868386268615723,2.196484327316284
0.10507499426603317,9.871187210083008,2.187828302383423
0.10507499426603317,9.871187210083008,2.187828302383423
0.10660060495138168,9.871824264526367,2.1795108318328857
0.10660060495138168,9.871824264526367,2.1795108318328857
0.10852039605379105,9.87294864654541,2.1690423488616943
0.10852039605379105,9.87294864654541,2.1690423488616943
0.10989157110452652,9.873902320861816,2.162182092666626
0.10989157110452652,9.873902320861816,2.162182092666626
0.11119580268859863,9.874504089355469,2.1569015979766846
0.11119580268859863,9.874504089355469,2.1569015979766846
0.11285249143838882,9.875445365905762,2.1506335735321045
0.11285249143838882,9.875445365905762,2.1506335735321045
0.1140313670039177,9.876177787780762,2.1466901302337646
0.1140313670039177,9.876177787780762,2.1466901302337646
0.11510490626096725,9.87660026550293,2.1440436840057373
0.11510490626096725,9.87660026550293,2.1440436840057373
0.11642224341630936,9.877134323120117,2.1419456005096436
0.11642224341630936,9.877134323120117,2.1419456005096436
0.1173018217086792,9.877402305603027,2.1424436569213867
0.1173018217086792,9.877402305603027,2.1424436569213867
0.11805419623851776,9.877347946166992,2.1451799869537354
0.11805419623851776,9.877347946166992,2.1451799869537354
0.1188797578215599,9.877132415771484,2.152381181716919
0.1188797578215599,9.877132415771484,2.152381181716919
0.11961033940315247,9.8761568069458,2.1602137088775635
0.11961033940315247,9.8761568069458,2.1602137088775635
0.1207457184791565,9.873719215393066,2.1682844161987305
0.1207457184791565,9.873719215393066,2.1682844161987305
0.12187452614307404,9.87081527709961,2.1819238662719727
0.12187452614307404,9.87081527709961,2.1819238662719727
0.1224251389503479,9.868901252746582,2.1944844722747803
0.1224251389503479,9.868901252746582,2.1944844722747803
0.12283738702535629,9.867193222045898,2.2064690589904785
0.12283738702535629,9.867193222045898,2.2064690589904785
0.12302177399396896,9.865297317504883,2.2249016761779785
0.12302177399396896,9.865297317504883,2.2249016761779785
0.12288196384906769,9.86415958404541,2.2402873039245605
0.12288196384906769,9.86415958404541,2.2402873039245605
0.12268996238708496,9.863212585449219,2.2540078163146973
0.12268996238708496,9.863212585449219,2.2540078163146973
0.122138611972332,9.862406730651855,2.2725393772125244
0.122138611972332,9.862406730651855,2.2725393772125244
0.12149582803249359,9.862157821655273,2.2861697673797607
0.12149582803249359,9.862157821655273,2.2861697673797607
0.12089807540178299,9.862032890319824,2.2969918251037598
0.12089807540178299,9.862032890319824,2.2969918251037598
0.11988924443721771,9.86227035522461,2.3104419708251953
0.11988924443721771,9.86227035522461,2.3104419708251953
0.11899711936712265,9.862791061401367,2.318899393081665
0.11899711936712265,9.862791061401367,2.318899393081665
0.11858190596103668,9.86068058013916,2.327401638031006
0.11858190596103668,9.86068058013916,2.327401638031006
0.1182737946510315,9.859413146972656,2.331738233566284
0.1182737946510315,9.859413146972656,2.331738233566284
0.11776386201381683,9.858650207519531,2.335073471069336
0.11776386201381683,9.858650207519531,2.335073471069336
0.11735977977514267,9.85801887512207,2.3366129398345947
0.11735977977514267,9.85801887512207,2.3366129398345947
0.11668587476015091,9.857795715332031,2.3364877700805664
0.11668587476015091,9.857795715332031,2.3364877700805664
0.11608067154884338,9.858109474182129,2.3345417976379395
0.11608067154884338,9.858109474182129,2.3345417976379395
0.11557792872190475,9.858498573303223,2.331577777862549
0.11557792872190475,9.858498573303223,2.331577777862549
0.11478123068809509,9.859692573547363,2.3253304958343506
0.11478123068809509,9.859692573547363,2.3253304958343506
0.1141071692109108,9.861130714416504,2.3187806606292725
0.1141071692109108,9.861130714416504,2.3187806606292725
0.11353321373462677,9.862568855285645,2.3120689392089844
0.11353321373462677,9.862568855285645,2.3120689392089844
0.11266344785690308,9.865214347839355,2.3006701469421387
0.11266344785690308,9.865214347839355,2.3006701469421387
0.11266344785690308,9.865214347839355,2.3006701469421387
0.11214493960142136,9.866830825805664,2.2910969257354736
0.1121223121881485,9.866583824157715,2.2824697494506836
0.1121223121881485,9.866583824157715,2.2824697494506836
0.11196061968803406,9.86721134185791,2.270059585571289
0.11196061968803406,9.86721134185791,2.270059585571289
0.11172040551900864,9.868361473083496,2.260228395462036
0.11172040551900864,9.868361473083496,2.260228395462036
0.1115487590432167,9.869394302368164,2.2516231536865234
0.1115487590432167,9.869394302368164,2.2516231536865234
0.1111999973654747,9.871557235717773,2.2393112182617188
0.1111999973654747,9.871557235717773,2.2393112182617188
0.1108761727809906,9.873741149902344,2.229698657989502
0.1108761727809906,9.873741149902344,2.229698657989502
0.1115468293428421,9.873479843139648,2.221794605255127
0.1115468293428421,9.873479843139648,2.221794605255127
0.11226382851600647,9.873940467834473,2.2109034061431885
0.11226382851600647,9.873940467834473,2.2109034061431885
0.11226382851600647,9.873940467834473,2.2109034061431885
0.112710140645504,9.874815940856934,2.2024857997894287
0.11319039762020111,9.875397682189941,2.1953227519989014
0.11319039762020111,9.875397682189941,2.1953227519989014
0.11375050991773605,9.876729965209961,2.1854212284088135
0.11375050991773605,9.876729965209961,2.1854212284088135
0.11412494629621506,9.87808895111084,2.1777467727661133
0.11412494629621506,9.87808895111084,2.1777467727661133
0.11452331393957138,9.87906551361084,2.1718697547912598
0.11452331393957138,9.87906551361084,2.1718697547912598
0.11499211192131042,9.880675315856934,2.164902448654175
0.11499211192131042,9.880675315856934,2.164902448654175
0.1153048500418663,9.882059097290039,2.1604819297790527
0.1153048500418663,9.882059097290039,2.1604819297790527
0.11561106145381927,9.883101463317871,2.1571292877197266
0.11561106145381927,9.883101463317871,2.1571292877197266
0.11593477427959442,9.884700775146484,2.153460741043091
0.11593477427959442,9.884700775146484,2.153460741043091
0.11609897762537003,9.885979652404785,2.1515636444091797
0.11609897762537003,9.885979652404785,2.1515636444091797
0.11673128604888916,9.884486198425293,2.150022029876709
0.11673128604888916,9.884486198425293,2.150022029876709
0.1171194463968277,9.883337020874023,2.150184392929077
0.1171194463968277,9.883337020874023,2.150184392929077
0.11738093942403793,9.882325172424316,2.1532366275787354
0.11738093942403793,9.882325172424316,2.1532366275787354
0.11756303906440735,9.881176948547363,2.1578798294067383
0.11756303906440735,9.881176948547363,2.1578798294067383
0.11756626516580582,9.879886627197266,2.1674752235412598
0.11756626516580582,9.879886627197266,2.1674752235412598
0.11734245717525482,9.879182815551758,2.1769320964813232
0.11734245717525482,9.879182815551758,2.1769320964813232
0.11704549193382263,9.878558158874512,2.186047077178955
0.11704549193382263,9.878558158874512,2.186047077178955
0.11633583158254623,9.878159523010254,2.200725555419922
0.11633583158254623,9.878159523010254,2.200725555419922
0.11554984748363495,9.878211975097656,2.2137339115142822
0.11554984748363495,9.878211975097656,2.2137339115142822
0.11433704942464828,9.878546714782715,2.2313406467437744
0.11433704942464828,9.878546714782715,2.2313406467437744
0.1133488267660141,9.878981590270996,2.2443907260894775
0.1133488267660141,9.878981590270996,2.2443907260894775
0.1133488267660141,9.878981590270996,2.2443907260894775
0.11252929270267487,9.878884315490723,2.2586004734039307
0.1126408725976944,9.876947402954102,2.2703089714050293
0.1126408725976944,9.876947402954102,2.2703089714050293
0.11241230368614197,9.875221252441406,2.2856504917144775
0.11241230368614197,9.875221252441406,2.2856504917144775
0.11198397725820541,9.874468803405762,2.297149658203125
0.11198397725820541,9.874468803405762,2.297149658203125
0.11165153980255127,9.87374210357666,2.3066859245300293
0.11165153980255127,9.87374210357666,2.3066859245300293
0.11092507839202881,9.87341022491455,2.317948579788208
0.11092507839202881,9.87341022491455,2.317948579788208
0.1101914569735527,9.873656272888184,2.3244595527648926
0.1101914569735527,9.873656272888184,2.3244595527648926
0.10959247499704361,9.873909950256348,2.328300714492798
0.10959247499704361,9.873909950256348,2.328300714492798
0.10858765989542007,9.874893188476562,2.3309969902038574
0.10858765989542007,9.874893188476562,2.3309969902038574
0.10858765989542007,9.874893188476562,2.3309969902038574
0.10769747197628021,9.876155853271484,2.3309268951416016
0.10694459825754166,9.877381324768066,2.3294622898101807
0.10694459825754166,9.877381324768066,2.3294622898101807
0.10578218847513199,9.879730224609375,2.325068712234497
0.10578218847513199,9.879730224609375,2.325068712234497
0.1050793007016182,9.881769180297852,2.318648099899292
0.1050793007016182,9.881769180297852,2.318648099899292
0.10543528944253922,9.881754875183105,2.3152050971984863
0.10543528944253922,9.881754875183105,2.3152050971984863
0.10600254684686661,9.882351875305176,2.3069348335266113
0.10600254684686661,9.882351875305176,2.3069348335266113
0.10600254684686661,9.882351875305176,2.3069348335266113
0.10625240206718445,9.883543014526367,2.299143075942993
0.10655602812767029,9.884632110595703,2.291799783706665
0.10655602812767029,9.884632110595703,2.291799783706665
0.10674010217189789,9.886940002441406,2.280392646789551
0.10674010217189789,9.886940002441406,2.280392646789551
0.10674010217189789,9.886940002441406,2.280392646789551
0.10673533380031586,9.88926887512207,2.270686388015747
0.10679972916841507,9.891312599182129,2.262045383453369
0.10679972916841507,9.891312599182129,2.262045383453369
0.10670514404773712,9.894678115844727,2.249544143676758
0.10670514404773712,9.894678115844727,2.249544143676758
0.10670514404773712,9.894678115844727,2.249544143676758
0.10650268197059631,9.897653579711914,2.239574432373047
0.10635102540254593,9.900225639343262,2.2310540676116943
0.10635102540254593,9.900225639343262,2.2310540676116943
0.1060083732008934,9.904146194458008,2.219060182571411
0.1060083732008934,9.904146194458008,2.219060182571411
0.1060083732008934,9.904146194458008,2.219060182571411
0.10604789853096008,9.906457901000977,2.2099051475524902
0.10688968002796173,9.906540870666504,2.202664375305176
0.10688968002796173,9.906540870666504,2.202664375305176
0.10777098685503006,9.907234191894531,2.1926536560058594
0.10777098685503006,9.907234191894531,2.1926536560058594
0.10777098685503006,9.907234191894531,2.1926536560058594
0.1082974374294281,9.908109664916992,2.184879779815674
0.10885044187307358,9.908624649047852,2.1782491207122803
0.10885044187307358,9.908624649047852,2.1782491207122803
0.10947053879499435,9.909570693969727,2.1699585914611816
0.10947053879499435,9.909570693969727,2.1699585914611816
0.10988626629114151,9.910346031188965,2.165100336074829
0.10988626629114151,9.910346031188965,2.165100336074829
0.11032865941524506,9.910755157470703,2.161778211593628
0.11032865941524506,9.910755157470703,2.161778211593628
0.11078395694494247,9.911421775817871,2.157898426055908
0.11078395694494247,9.911421775817871,2.157898426055908
0.11078395694494247,9.911421775817871,2.157898426055908
0.11101654171943665,9.911967277526855,2.155304431915283
0.11123759299516678,9.91225528717041,2.1535539627075195
0.11123759299516678,9.91225528717041,2.1535539627075195
0.11139833927154541,9.912666320800781,2.151998996734619
0.11139833927154541,9.912666320800781,2.151998996734619
0.11198034882545471,9.912041664123535,2.1519908905029297
0.11198034882545471,9.912041664123535,2.1519908905029297
0.11359266191720963,9.909520149230957,2.153590679168701
0.11359266191720963,9.909520149230957,2.153590679168701
0.11540471762418747,9.9063720703125,2.156743288040161
0.11540471762418747,9.9063720703125,2.156743288040161
0.11540471762418747,9.9063720703125,2.156743288040161
0.11652585864067078,9.904155731201172,2.1597702503204346
0.11754671484231949,9.90201473236084,2.1628739833831787
0.11754671484231949,9.90201473236084,2.1628739833831787
0.11862950772047043,9.899296760559082,2.1679017543792725
0.11862950772047043,9.899296760559082,2.1679017543792725
0.11862950772047043,9.899296760559082,2.1679017543792725
0.11924132704734802,9.897329330444336,2.1725239753723145
0.1198025569319725,9.895465850830078,2.176961660385132
0.1198025569319725,9.895465850830078,2.176961660385132
0.12032373994588852,9.893102645874023,2.183380365371704
0.12032373994588852,9.893102645874023,2.183380365371704
0.12032373994588852,9.893102645874023,2.183380365371704
0.12053466588258743,9.891398429870605,2.1884207725524902
0.1206994503736496,9.88984489440918,2.1926498413085938
0.1206994503736496,9.88984489440918,2.1926498413085938
0.120716892182827,9.88785171508789,2.198438882827759
0.120716892182827,9.88785171508789,2.198438882827759
0.12057259678840637,9.886385917663574,2.202939748764038
0.12057259678840637,9.886385917663574,2.202939748764038
0.12232928723096848,9.882450103759766,2.2096354961395264
0.12232928723096848,9.882450103759766,2.2096354961395264
0.12344671040773392,9.879742622375488,2.2143285274505615
0.12344671040773392,9.879742622375488,2.2143285274505615
0.12344671040773392,9.879742622375488,2.2143285274505615
0.12428883463144302,9.877074241638184,2.2194297313690186
0.12506850063800812,9.874672889709473,2.22392201423645
0.12506850063800812,9.874672889709473,2.22392201423645
0.12581847608089447,9.871668815612793,2.2300362586975098
0.12581847608089447,9.871668815612793,2.2300362586975098
0.12581847608089447,9.871668815612793,2.2300362586975098
0.12618069350719452,9.869568824768066,2.2344932556152344
0.12650825083255768,9.86776351928711,2.2382867336273193
0.12650825083255768,9.86776351928711,2.2382867336273193
0.126665860414505,9.865571022033691,2.243532180786133
0.126665860414505,9.865571022033691,2.243532180786133
0.1265745311975479,9.864150047302246,2.247041702270508
0.1265745311975479,9.864150047302246,2.247041702270508
0.12634776532649994,9.86269474029541,2.250075101852417
0.12634776532649994,9.86269474029541,2.250075101852417
0.12612003087997437,9.861896514892578,2.251314163208008
0.12612003087997437,9.861896514892578,2.251314163208008
0.12597215175628662,9.860753059387207,2.2520782947540283
0.12597215175628662,9.860753059387207,2.2520782947540283
0.1264011412858963,9.859748840332031,2.2521727085113525
0.1264011412858963,9.859748840332031,2.2521727085113525
0.12706872820854187,9.858171463012695,2.2514491081237793
0.12706872820854187,9.858171463012695,2.2514491081237793
0.12706872820854187,9.858171463012695,2.2514491081237793
0.12734539806842804,9.85738754272461,2.250068187713623
0.12763695418834686,9.856834411621094,2.2483034133911133
0.12763695418834686,9.856834411621094,2.2483034133911133
0.12779316306114197,9.856598854064941,2.244616746902466
0.12779316306114197,9.856598854064941,2.244616746902466
0.12775956094264984,9.856797218322754,2.240886688232422
0.12775956094264984,9.856797218322754,2.240886688232422
0.1276768147945404,9.8573637008667,2.2354116439819336
0.1276768147945404,9.8573637008667,2.2354116439819336
0.12758465111255646,9.857985496520996,2.231043577194214
0.12758465111255646,9.857985496520996,2.231043577194214
0.12758465111255646,9.857985496520996,2.231043577194214
0.12728017568588257,9.859270095825195,2.2241358757019043
0.12709102034568787,9.860047340393066,2.2204275131225586
0.12709102034568787,9.860047340393066,2.2204275131225586
0.12664222717285156,9.861838340759277,2.2125844955444336
0.12664222717285156,9.861838340759277,2.2125844955444336
0.12676353752613068,9.863290786743164,2.2044241428375244
0.12676353752613068,9.863290786743164,2.2044241428375244
0.12772485613822937,9.863237380981445,2.2001214027404785
0.12772485613822937,9.863237380981445,2.2001214027404785
0.12942418456077576,9.863504409790039,2.1915130615234375
0.12942418456077576,9.863504409790039,2.1915130615234375
0.12942418456077576,9.863504409790039,2.1915130615234375
0.13046233355998993,9.864139556884766,2.1845932006835938
0.13144244253635406,9.864720344543457,2.1784615516662598
0.13144244253635406,9.864720344543457,2.1784615516662598
0.1324883997440338,9.865909576416016,2.1708948612213135
0.1324883997440338,9.865909576416016,2.1708948612213135
0.1324883997440338,9.865909576416016,2.1708948612213135
0.1330794394016266,9.86702823638916,2.166572332382202
0.13371209800243378,9.868425369262695,2.1629459857940674
0.13371209800243378,9.868425369262695,2.1629459857940674
0.13407206535339355,9.869405746459961,2.1614322662353516
0.13407206535339355,9.869405746459961,2.1614322662353516
0.13419057428836823,9.870656967163086,2.1606249809265137
0.13419057428836823,9.870656967163086,2.1606249809265137
0.13426226377487183,9.871685981750488,2.160640001296997
0.13426226377487183,9.871685981750488,2.160640001296997
0.13404011726379395,9.873220443725586,2.1620688438415527
0.13404011726379395,9.873220443725586,2.1620688438415527
0.13404011726379395,9.873220443725586,2.1620688438415527
0.13363875448703766,9.87448501586914,2.1642067432403564
0.13457226753234863,9.874092102050781,2.1660144329071045
0.13457226753234863,9.874092102050781,2.1660144329071045
0.13538208603858948,9.873884201049805,2.169529438018799
0.13538208603858948,9.873884201049805,2.169529438018799
0.13569754362106323,9.873932838439941,2.1728529930114746
0.13569754362106323,9.873932838439941,2.1728529930114746
0.1359979659318924,9.873897552490234,2.1759440898895264
0.1359979659318924,9.873897552490234,2.1759440898895264
0.13606058061122894,9.874072074890137,2.1806862354278564
0.13606058061122894,9.874072074890137,2.1806862354278564
0.1358909159898758,9.8743314743042,2.1847856044769287
0.1358909159898758,9.8743314743042,2.1847856044769287
0.13667282462120056,9.87249755859375,2.1898865699768066
0.13667282462120056,9.87249755859375,2.1898865699768066
0.13714991509914398,9.871280670166016,2.1932568550109863
0.13714991509914398,9.871280670166016,2.1932568550109863
0.13714991509914398,9.871280670166016,2.1932568550109863
0.13733458518981934,9.870376586914062,2.1968724727630615
0.13753566145896912,9.869511604309082,2.199887752532959
0.13753566145896912,9.869511604309082,2.199887752532959
0.13749153912067413,9.868692398071289,2.2039759159088135
0.13749153912067413,9.868692398071289,2.2039759159088135
0.13723072409629822,9.868340492248535,2.2070212364196777
0.13723072409629822,9.868340492248535,2.2070212364196777
0.1369907259941101,9.8680419921875,2.2096035480499268
0.1369907259941101,9.8680419921875,2.2096035480499268
0.13636109232902527,9.867982864379883,2.2134315967559814
0.13636109232902527,9.867982864379883,2.2134315967559814
0.13636109232902527,9.867982864379883,2.2134315967559814
0.1355149745941162,9.868246078491211,2.217040538787842
0.1350233107805252,9.86851978302002,2.2182791233062744
0.1350233107805252,9.86851978302002,2.2182791233062744
0.13391423225402832,9.869346618652344,2.219522714614868
0.13391423225402832,9.869346618652344,2.219522714614868
0.1328892856836319,9.870323181152344,2.2194128036499023
0.1328892856836319,9.870323181152344,2.2194128036499023
0.133528932929039,9.869711875915527,2.2196645736694336
0.133528932929039,9.869711875915527,2.2196645736694336
0.13402552902698517,9.869523048400879,2.2189390659332275
0.13402552902698517,9.869523048400879,2.2189390659332275
0.13417518138885498,9.869833946228027,2.217633008956909
0.13417518138885498,9.869833946228027,2.217633008956909
0.13438920676708221,9.870166778564453,2.2161478996276855
0.13438920676708221,9.870166778564453,2.2161478996276855
0.134402334690094,9.87115478515625,2.2131142616271973
0.134402334690094,9.87115478515625,2.2131142616271973
0.134402334690094,9.87115478515625,2.2131142616271973
0.13425321877002716,9.87230110168457,2.2099685668945312
0.13416337966918945,9.873388290405273,2.2067577838897705
0.13416337966918945,9.873388290405273,2.2067577838897705
0.13383962213993073,9.875358581542969,2.201080560684204
0.13383962213993073,9.875358581542969,2.201080560684204
0.13345716893672943,9.87724494934082,2.195664644241333
0.13345716893672943,9.87724494934082,2.195664644241333
0.13315220177173615,9.878969192504883,2.1906633377075195
0.13315220177173615,9.878969192504883,2.1906633377075195
0.1325691044330597,9.881711959838867,2.1829888820648193
0.1325691044330597,9.881711959838867,2.1829888820648193
0.1325691044330597,9.881711959838867,2.1829888820648193
0.13200291991233826,9.884072303771973,2.176711082458496
0.13286514580249786,9.88508415222168,2.172041177749634
0.13286514580249786,9.88508415222168,2.172041177749634
0.13370710611343384,9.886919975280762,2.1652050018310547
0.13370710611343384,9.886919975280762,2.1652050018310547
0.13412868976593018,9.88863754272461,2.159639835357666
0.13412868976593018,9.88863754272461,2.159639835357666
0.1345672607421875,9.890054702758789,2.1557817459106445
0.1345672607421875,9.890054702758789,2.1557817459106445
0.13490144908428192,9.89217472076416,2.152050733566284
0.13490144908428192,9.89217472076416,2.152050733566284
0.1349738985300064,9.89390754699707,2.150254249572754
0.1349738985300064,9.89390754699707,2.150254249572754
0.13504675030708313,9.895322799682617,2.149754762649536
0.13504675030708313,9.895322799682617,2.149754762649536
0.13488300144672394,9.897348403930664,2.150024175643921
0.13488300144672394,9.897348403930664,2.150024175643921
0.13488300144672394,9.897348403930664,2.150024175643921
0.13454468548297882,9.898921012878418,2.1512231826782227
0.13422159850597382,9.90019416809082,2.152987241744995
0.13422159850597382,9.90019416809082,2.152987241744995
0.13422159850597382,9.90019416809082,2.152987241744995
0.1335395723581314,9.901968002319336,2.1561248302459717
0.1335395723581314,9.901968002319336,2.1561248302459717
0.13325925171375275,9.902853965759277,2.1586194038391113
0.13379846513271332,9.902595520019531,2.1604113578796387
0.13379846513271332,9.902595520019531,2.1604113578796387
0.13415487110614777,9.902474403381348,2.16326642036438
0.13415487110614777,9.902474403381348,2.16326642036438
0.13415487110614777,9.902474403381348,2.16326642036438
0.13418333232402802,9.902486801147461,2.166137456893921
0.13422876596450806,9.90236759185791,2.169069290161133
0.13422876596450806,9.90236759185791,2.169069290161133
0.13401339948177338,9.902347564697266,2.1735782623291016
0.13401339948177338,9.902347564697266,2.1735782623291016
0.13366028666496277,9.902451515197754,2.177151918411255
0.13366028666496277,9.902451515197754,2.177151918411255
0.1333610862493515,9.902499198913574,2.180251121520996
0.1333610862493515,9.902499198913574,2.180251121520996
0.13272258639335632,9.902729034423828,2.184591770172119
0.13272258639335632,9.902729034423828,2.184591770172119
0.13272258639335632,9.902729034423828,2.184591770172119
0.13205640017986298,9.902999877929688,2.1881301403045654
0.13145698606967926,9.903230667114258,2.1911370754241943
0.13145698606967926,9.903230667114258,2.1911370754241943
0.13040924072265625,9.903684616088867,2.1955552101135254
0.13040924072265625,9.903684616088867,2.1955552101135254
0.13040924072265625,9.903684616088867,2.1955552101135254
0.12944908440113068,9.904144287109375,2.1992311477661133
0.12949948012828827,9.903221130371094,2.2027249336242676
0.12949948012828827,9.903221130371094,2.2027249336242676
0.1292247474193573,9.902389526367188,2.206698417663574
0.1292247474193573,9.902389526367188,2.206698417663574
0.1292247474193573,9.902389526367188,2.206698417663574
0.12879620492458344,9.902056694030762,2.2088053226470947
0.12842848896980286,9.901809692382812,2.210111379623413
0.12842848896980286,9.901809692382812,2.210111379623413
0.12768226861953735,9.901866912841797,2.2108657360076904
0.12768226861953735,9.901866912841797,2.2108657360076904
0.12768226861953735,9.901866912841797,2.2108657360076904
0.126810684800148,9.902270317077637,2.2105462551116943
0.12632639706134796,9.902609825134277,2.209894895553589
0.12632639706134796,9.902609825134277,2.209894895553589
0.12529930472373962,9.903554916381836,2.2077503204345703
0.12529930472373962,9.903554916381836,2.2077503204345703
0.12529930472373962,9.903554916381836,2.2077503204345703
0.12442569434642792,9.90460205078125,2.20513653755188
0.12369771301746368,9.90561580657959,2.2024335861206055
0.12369771301746368,9.90561580657959,2.2024335861206055
0.12259883433580399,9.907361030578613,2.19766902923584
0.12259883433580399,9.907361030578613,2.19766902923584
0.12259883433580399,9.907361030578613,2.19766902923584
0.12167965620756149,9.908970832824707,2.1930015087127686
0.12299786508083344,9.909381866455078,2.188845157623291
0.12299786508083344,9.909381866455078,2.188845157623291
0.12440577149391174,9.910433769226074,2.1816701889038086
0.12440577149391174,9.910433769226074,2.1816701889038086
0.125248983502388,9.911561012268066,2.175302267074585
0.125248983502388,9.911561012268066,2.175302267074585
0.12627556920051575,9.913106918334961,2.1671366691589355
0.12627556920051575,9.913106918334961,2.1671366691589355
0.12698818743228912,9.914267539978027,2.161288022994995
0.12698818743228912,9.914267539978027,2.161288022994995
0.12772873044013977,9.916152000427246,2.1525442600250244
0.12772873044013977,9.916152000427246,2.1525442600250244
0.12804768979549408,9.917134284973145,2.1483371257781982
0.12804768979549408,9.917134284973145,2.1483371257781982
0.12856663763523102,9.919011116027832,2.141839027404785
0.12856663763523102,9.919011116027832,2.141839027404785
0.12881632149219513,9.92046070098877,2.138115167617798
0.12881632149219513,9.92046070098877,2.138115167617798
0.1290527582168579,9.921608924865723,2.135796546936035
0.1290527582168579,9.921608924865723,2.135796546936035
0.12912313640117645,9.923155784606934,2.1338744163513184
0.12912313640117645,9.923155784606934,2.1338744163513184
0.12912313640117645,9.923155784606934,2.1338744163513184
0.12999245524406433,9.923133850097656,2.1331446170806885
0.13080482184886932,9.922429084777832,2.133364200592041
0.13080482184886932,9.922429084777832,2.133364200592041
0.13211940228939056,9.921133041381836,2.1352005004882812
0.13211940228939056,9.921133041381836,2.1352005004882812
0.13211940228939056,9.921133041381836,2.1352005004882812
0.1327882707118988,9.920294761657715,2.1378886699676514
0.13337624073028564,9.919342994689941,2.142068386077881
0.13337624073028564,9.919342994689941,2.142068386077881
0.133766770362854,9.918095588684082,2.1516592502593994
0.133766770362854,9.918095588684082,2.1516592502593994
0.133766770362854,9.918095588684082,2.1516592502593994
0.13372425734996796,9.917272567749023,2.1616873741149902
0.1343701332807541,9.915061950683594,2.1720399856567383
0.1343701332807541,9.915061950683594,2.1720399856567383
0.13470414280891418,9.912758827209473,2.1870455741882324
0.13470414280891418,9.912758827209473,2.1870455741882324
0.13457298278808594,9.91158676147461,2.1981003284454346
0.13457298278808594,9.91158676147461,2.1981003284454346
0.1344178467988968,9.910653114318848,2.207146167755127
0.1344178467988968,9.910653114318848,2.207146167755127
0.13377025723457336,9.909867286682129,2.2201738357543945
0.13377025723457336,9.909867286682129,2.2201738357543945
0.13377025723457336,9.909867286682129,2.2201738357543945
0.13296478986740112,9.90947151184082,2.231754779815674
0.13179539144039154,9.909015655517578,2.246765375137329
0.13179539144039154,9.909015655517578,2.246765375137329
0.13088595867156982,9.908768653869629,2.2571585178375244
0.13088595867156982,9.908768653869629,2.2571585178375244
0.1296069175004959,9.908804893493652,2.2682511806488037
0.1296069175004959,9.908804893493652,2.2682511806488037
0.1284787654876709,9.90890121459961,2.2765700817108154
0.1284787654876709,9.90890121459961,2.2765700817108154
0.1266799420118332,9.909440994262695,2.285379648208618
0.1266799420118332,9.909440994262695,2.285379648208618
0.1266799420118332,9.909440994262695,2.285379648208618
0.12561160326004028,9.909707069396973,2.2901601791381836
0.125640869140625,9.909120559692383,2.2931346893310547
0.125640869140625,9.909120559692383,2.2931346893310547
0.1253192275762558,9.908905982971191,2.2947633266448975
0.1253192275762558,9.908905982971191,2.2947633266448975
0.12484093755483627,9.909193992614746,2.2939794063568115
0.12484093755483627,9.909193992614746,2.2939794063568115
0.12451548874378204,9.909524917602539,2.2919931411743164
0.12451548874378204,9.909524917602539,2.2919931411743164
0.12382367998361588,9.910590171813965,2.2867681980133057
0.12382367998361588,9.910590171813965,2.2867681980133057
0.12314827740192413,9.911911010742188,2.28066086769104
0.12314827740192413,9.911911010742188,2.28066086769104
0.12411589175462723,9.911884307861328,2.2743782997131348
0.12411589175462723,9.911884307861328,2.2743782997131348
0.1250229924917221,9.91268253326416,2.263803243637085
0.1250229924917221,9.91268253326416,2.263803243637085
0.1256948709487915,9.914122581481934,2.2518744468688965
0.1256948709487915,9.914122581481934,2.2518744468688965
0.12594842910766602,9.915060997009277,2.245502233505249
0.12594842910766602,9.915060997009277,2.245502233505249
0.12631087005138397,9.917359352111816,2.2323718070983887
0.12631087005138397,9.917359352111816,2.2323718070983887
0.12638579308986664,9.919637680053711,2.2212936878204346
0.12638579308986664,9.919637680053711,2.2212936878204346
0.12652279436588287,9.921683311462402,2.2115213871002197
0.12652279436588287,9.921683311462402,2.2115213871002197
0.12649016082286835,9.924948692321777,2.1979165077209473
0.12649016082286835,9.924948692321777,2.1979165077209473
0.12649016082286835,9.924948692321777,2.1979165077209473
0.1263221949338913,9.927754402160645,2.187563896179199
0.12621735036373138,9.930156707763672,2.1789207458496094
0.12621735036373138,9.930156707763672,2.1789207458496094
0.12621735036373138,9.930156707763672,2.1789207458496094
0.12590008974075317,9.933621406555176,2.1672561168670654
0.12555521726608276,9.936322212219238,2.158552646636963
0.12555521726608276,9.936322212219238,2.158552646636963
0.12641261518001556,9.93742847442627,2.1516051292419434
0.12641261518001556,9.93742847442627,2.1516051292419434
0.12728142738342285,9.938929557800293,2.144087076187134
0.12728142738342285,9.938929557800293,2.144087076187134
0.12728142738342285,9.938929557800293,2.144087076187134
0.12775228917598724,9.940014839172363,2.139673948287964
0.1282016932964325,9.940706253051758,2.1366615295410156
0.1282016932964325,9.940706253051758,2.1366615295410156
0.12854814529418945,9.941603660583496,2.133406162261963
0.12854814529418945,9.941603660583496,2.133406162261963
0.12854814529418945,9.941603660583496,2.133406162261963
0.12863479554653168,9.942204475402832,2.131673574447632
0.12872247397899628,9.942524909973145,2.1307451725006104
0.12872247397899628,9.942524909973145,2.1307451725006104
0.12862463295459747,9.94283676147461,2.1303610801696777
0.12862463295459747,9.94283676147461,2.1303610801696777
0.12862463295459747,9.94283676147461,2.1303610801696777
0.12840956449508667,9.942924499511719,2.1312015056610107
0.12823596596717834,9.942720413208008,2.1341092586517334
0.12823596596717834,9.942720413208008,2.1341092586517334
0.12781809270381927,9.942168235778809,2.1413767337799072
0.12781809270381927,9.942168235778809,2.1413767337799072
0.12731832265853882,9.94162654876709,2.1492326259613037
0.12731832265853882,9.94162654876709,2.1492326259613037
0.12772537767887115,9.939920425415039,2.156447172164917
0.12772537767887115,9.939920425415039,2.156447172164917
0.12787626683712006,9.937886238098145,2.1677205562591553
0.12787626683712006,9.937886238098145,2.1677205562591553
0.12787626683712006,9.937886238098145,2.1677205562591553
0.12768234312534332,9.93652629852295,2.1780683994293213
0.1274479776620865,9.935352325439453,2.188122272491455
0.1274479776620865,9.935352325439453,2.188122272491455
0.12674325704574585,9.934029579162598,2.2041127681732178
0.12674325704574585,9.934029579162598,2.2041127681732178
0.12592224776744843,9.933216094970703,2.2179698944091797
0.12592224776744843,9.933216094970703,2.2179698944091797
0.12512940168380737,9.932598114013672,2.230048179626465
0.12512940168380737,9.932598114013672,2.230048179626465
0.12377248704433441,9.932104110717773,2.2459938526153564
0.12377248704433441,9.932104110717773,2.2459938526153564
0.12377248704433441,9.932104110717773,2.2459938526153564
0.12251979112625122,9.931953430175781,2.2577672004699707
0.12138685584068298,9.931885719299316,2.267317533493042
0.12138685584068298,9.931885719299316,2.267317533493042
0.11965015530586243,9.932000160217285,2.2793455123901367
0.11965015530586243,9.932000160217285,2.2793455123901367
0.11965015530586243,9.932000160217285,2.2793455123901367
0.11819235980510712,9.932262420654297,2.2868094444274902
0.11816881597042084,9.931476593017578,2.2926456928253174
0.11816881597042084,9.931476593017578,2.2926456928253174
0.1178404688835144,9.930761337280273,2.2978577613830566
0.1178404688835144,9.930761337280273,2.2978577613830566
0.11740236729383469,9.93043327331543,2.299755573272705
0.11740236729383469,9.93043327331543,2.299755573272705
0.11710012704133987,9.930155754089355,2.2999677658081055
0.11710012704133987,9.930155754089355,2.2999677658081055
0.11652456223964691,9.930061340332031,2.297823429107666
0.11652456223964691,9.930061340332031,2.297823429107666
0.1159946545958519,9.930218696594238,2.2942891120910645
0.1159946545958519,9.930218696594238,2.2942891120910645
0.1162741482257843,9.9295015335083,2.289970636367798
0.1162741482257843,9.9295015335083,2.289970636367798
0.11643138527870178,9.929036140441895,2.2817797660827637
0.11643138527870178,9.929036140441895,2.2817797660827637
0.11648682504892349,9.929025650024414,2.2719149589538574
0.11648682504892349,9.929025650024414,2.2719149589538574
0.11647335439920425,9.92920207977295,2.2662622928619385
0.11647335439920425,9.92920207977295,2.2662622928619385
0.11637426912784576,9.929911613464355,2.253718614578247
0.094436414539814,9.901687622070312,2.4144372940063477
0.094436414539814,9.901687622070312,2.4144372940063477
0.09403454512357712,9.90243911743164,2.410166025161743
0.09403454512357712,9.90243911743164,2.410166025161743
0.09374164044857025,9.903315544128418,2.4051101207733154
0.09374164044857025,9.903315544128418,2.4051101207733154
0.09319658577442169,9.904687881469727,2.3962700366973877
0.09319658577442169,9.904687881469727,2.3962700366973877
0.09269694238901138,9.905916213989258,2.38795804977417
0.09269694238901138,9.905916213989258,2.38795804977417
0.09229747951030731,9.907212257385254,2.380013942718506
0.09229747951030731,9.907212257385254,2.380013942718506
0.09166054427623749,9.909218788146973,2.367586851119995
0.11312717944383621,9.930612564086914,2.4272518157958984
0.11312717944383621,9.930612564086914,2.4272518157958984
0.11241233348846436,9.931596755981445,2.420785427093506
0.11241233348846436,9.931596755981445,2.420785427093506
0.11347007751464844,9.932039260864258,2.4123783111572266
0.11347007751464844,9.932039260864258,2.4123783111572266
0.08366545289754868,9.949701309204102,2.442199468612671
0.08312958478927612,9.94980239868164,2.4451658725738525
0.08312958478927612,9.94980239868164,2.4451658725738525
0.08257713168859482,9.950141906738281,2.4471757411956787
0.08257713168859482,9.950141906738281,2.4471757411956787
0.08212636411190033,9.950566291809082,2.4469141960144043
0.08212636411190033,9.950566291809082,2.4469141960144043
0.08156446367502213,9.951502799987793,2.444659471511841
0.08156446367502213,9.951502799987793,2.444659471511841
0.08121435344219208,9.952280044555664,2.4408204555511475
0.08121435344219208,9.952280044555664,2.4408204555511475
0.08096713572740555,9.952635765075684,2.435539722442627
0.08096713572740555,9.952635765075684,2.435539722442627
0.1123049408197403,9.957494735717773,2.284618377685547
0.09944728016853333,9.95175838470459,2.184884786605835
0.11090068519115448,9.948205947875977,2.101412057876587
0.12305274605751038,9.937480926513672,2.2771267890930176
0.11408669501543045,9.959952354431152,2.3208084106445312
0.11445648968219757,9.95961856842041,2.352274179458618
0.11319861561059952,9.960118293762207,2.350818157196045
0.11319861561059952,9.960118293762207,2.350818157196045
0.11159578710794449,9.960858345031738,2.347898244857788
0.11159578710794449,9.960858345031738,2.347898244857788
0.1102471649646759,9.961655616760254,2.343993663787842
0.1102471649646759,9.961655616760254,2.343993663787842
0.10819180309772491,9.963093757629395,2.336696147918701
0.10819180309772491,9.963093757629395,2.336696147918701
0.10711624473333359,9.964360237121582,2.3295137882232666
0.10711624473333359,9.964360237121582,2.3295137882232666
0.10735277086496353,9.965874671936035,2.3192667961120605
0.10735277086496353,9.965874671936035,2.3192667961120605
0.10748440027236938,9.96718692779541,2.3112778663635254
0.10748440027236938,9.96718692779541,2.3112778663635254
0.11072765290737152,9.98459243774414,2.3514630794525146
0.09167385846376419,9.977553367614746,2.4328324794769287
0.09846173226833344,9.957572937011719,2.3941776752471924
0.08924707025289536,9.954519271850586,2.327378988265991
0.12209630757570267,9.942848205566406,2.2536754608154297
0.1307450383901596,9.947593688964844,2.1885452270507812
0.10885030776262283,9.964178085327148,2.081400156021118
0.10683136433362961,9.961554527282715,2.1757848262786865
0.09299968928098679,9.956879615783691,2.186204433441162
0.10371027141809464,9.95544719696045,2.194319009780884
0.12623433768749237,9.952300071716309,2.1958746910095215
0.1251312643289566,9.967554092407227,2.241382598876953
0.10611273348331451,9.96178913116455,2.221360445022583
0.10677598416805267,9.974259376525879,2.1394670009613037
0.13574039936065674,9.991362571716309,1.9954938888549805
0.14977890253067017,9.961716651916504,2.059912919998169
0.1043965294957161,9.979103088378906,1.9947044849395752
0.09389952570199966,9.967144966125488,2.095705986022949
0.09624174982309341,9.97027587890625,2.1078789234161377
0.10872554033994675,9.968670845031738,2.244752883911133
0.07944846153259277,10.018092155456543,2.32875919342041
0.07930444926023483,10.024139404296875,2.5049824714660645
0.07930444926023483,10.024139404296875,2.5049824714660645
0.07964102923870087,10.026450157165527,2.489914655685425
0.07964102923870087,10.026450157165527,2.489914655685425
0.08003044128417969,10.0282564163208,2.478605270385742
0.08003044128417969,10.0282564163208,2.478605270385742
0.08039982616901398,10.029753684997559,2.468987464904785
0.08039982616901398,10.029753684997559,2.468987464904785
0.08090975880622864,10.031230926513672,2.4536101818084717
0.08090975880622864,10.031230926513672,2.4536101818084717
0.08145322650671005,10.032235145568848,2.4426231384277344
0.08145322650671005,10.032235145568848,2.4426231384277344
0.08197382092475891,10.032855987548828,2.433736801147461
0.08197382092475891,10.032855987548828,2.433736801147461
0.08288252353668213,10.03336238861084,2.4233853816986084
0.08288252353668213,10.03336238861084,2.4233853816986084
0.08371920138597488,10.033464431762695,2.4167253971099854
0.08371920138597488,10.033464431762695,2.4167253971099854
0.08447938412427902,10.033318519592285,2.4111506938934326
0.08447938412427902,10.033318519592285,2.4111506938934326
0.08564182370901108,10.032744407653809,2.405327558517456
0.08564182370901108,10.032744407653809,2.405327558517456
0.06497099995613098,9.988121032714844,2.562236785888672
0.06447543948888779,9.990436553955078,2.548435926437378
0.06447543948888779,9.990436553955078,2.548435926437378
0.08124250173568726,9.990470886230469,2.2955386638641357
0.11343228071928024,9.93944263458252,2.288378953933716
0.11410578340291977,9.938652992248535,2.2909674644470215
0.08466898649930954,9.944161415100098,2.481403112411499
0.07014056295156479,9.971609115600586,2.551509380340576
0.07152540236711502,10.00033950805664,2.421700954437256
0.07192231714725494,10.000971794128418,2.4176533222198486
0.07192231714725494,10.000971794128418,2.4176533222198486
0.07243241369724274,10.001506805419922,2.414010763168335
0.05272480100393295,10.00920295715332,2.521847724914551
0.05272480100393295,10.00920295715332,2.521847724914551
0.05312925949692726,10.011604309082031,2.510680675506592
0.05312925949692726,10.011604309082031,2.510680675506592
0.053521573543548584,10.01370620727539,2.5010387897491455
0.053521573543548584,10.01370620727539,2.5010387897491455
0.05303968861699104,10.015235900878906,2.48362135887146
0.05303968861699104,10.015235900878906,2.48362135887146
0.0529392808675766,10.01634693145752,2.4707775115966797
0.0529392808675766,10.01634693145752,2.4707775115966797
0.0528729073703289,10.017127990722656,2.4594147205352783
0.0528729073703289,10.017127990722656,2.4594147205352783
0.05315065383911133,10.017955780029297,2.4447219371795654
0.05365448817610741,10.0182466506958,2.435166597366333
0.05365448817610741,10.0182466506958,2.435166597366333
0.05365448817610741,10.0182466506958,2.435166597366333
0.054443638771772385,10.018086433410645,2.42465877532959
0.054443638771772385,10.018086433410645,2.42465877532959
0.05507563054561615,10.01763916015625,2.418025493621826
0.05507563054561615,10.01763916015625,2.418025493621826
0.07126327604055405,9.996747016906738,2.54292368888855
0.07213901728391647,9.998430252075195,2.5310657024383545
0.0732908770442009,10.000235557556152,2.51733136177063
0.0732908770442009,10.000235557556152,2.51733136177063
0.0732908770442009,10.000235557556152,2.51733136177063
0.07413913309574127,10.001219749450684,2.5088672637939453
0.07413913309574127,10.001219749450684,2.5088672637939453
0.07505716383457184,10.00189208984375,2.5012221336364746
0.07590969651937485,10.002189636230469,2.495013475418091
0.07590969651937485,10.002189636230469,2.495013475418091
0.07296358048915863,9.952581405639648,2.609785318374634
0.06894171983003616,9.966275215148926,2.3865926265716553
0.06790359318256378,9.96353530883789,2.395920515060425
0.06790359318256378,9.96353530883789,2.395920515060425
0.061305396258831024,9.944055557250977,2.367859125137329
0.06159095838665962,9.94315242767334,2.3696348667144775
0.0620562918484211,9.942201614379883,2.3696064949035645
0.08515641838312149,9.960691452026367,2.179016590118408
0.08515641838312149,9.960691452026367,2.179016590118408
0.0840776190161705,9.963298797607422,2.173626184463501
0.0840776190161705,9.963298797607422,2.173626184463501
0.08347635716199875,9.965215682983398,2.1691441535949707
0.08347635716199875,9.965215682983398,2.1691441535949707
0.08294771611690521,9.966806411743164,2.165330410003662
0.08294771611690521,9.966806411743164,2.165330410003662
0.08248016238212585,9.968801498413086,2.1597695350646973
0.08248016238212585,9.968801498413086,2.1597695350646973
0.08231313526630402,9.9701566696167,2.1553173065185547
0.08231313526630402,9.9701566696167,2.1553173065185547
0.08231313526630402,9.9701566696167,2.1553173065185547
0.08219971507787704,9.971242904663086,2.1516060829162598
0.08219971507787704,9.971242904663086,2.1516060829162598
0.08230579644441605,9.972564697265625,2.1461262702941895
0.08256639540195465,9.973441123962402,2.14174485206604
0.08256639540195465,9.973441123962402,2.14174485206604
0.08283478021621704,9.974125862121582,2.137927532196045
0.08283478021621704,9.974125862121582,2.137927532196045
0.08283478021621704,9.974125862121582,2.137927532196045
0.08245281875133514,9.975250244140625,2.1333322525024414
0.08245281875133514,9.975250244140625,2.1333322525024414
0.0823979377746582,9.975951194763184,2.1291167736053467
0.08237707614898682,9.976485252380371,2.1253104209899902
0.08237707614898682,9.976485252380371,2.1253104209899902
0.08263085782527924,9.977005004882812,2.1195719242095947
0.08263085782527924,9.977005004882812,2.1195719242095947
0.08303632587194443,9.977216720581055,2.1149001121520996
0.08303632587194443,9.977216720581055,2.1149001121520996
0.08343219012022018,9.977212905883789,2.1119256019592285
0.08343219012022018,9.977212905883789,2.1119256019592285
0.08421242237091064,9.976799964904785,2.1095619201660156
0.10895193368196487,9.941160202026367,2.168665885925293
0.11944941431283951,9.966353416442871,2.1521825790405273
0.09227540343999863,9.964088439941406,2.13677716255188
0.10864736884832382,9.966902732849121,2.167720079421997
0.10695628821849823,9.967550277709961,2.049694299697876
0.11640696972608566,9.97181510925293,2.0585200786590576
0.12228294461965561,9.976838111877441,2.0553600788116455
0.07094597816467285,9.96756649017334,2.0563907623291016
0.09301220625638962,9.935070991516113,2.1344542503356934
0.10984469950199127,9.98299503326416,2.2009761333465576
0.11758413165807724,9.975316047668457,2.200026750564575
0.11758413165807724,9.975316047668457,2.200026750564575
0.11730735003948212,9.975560188293457,2.2015371322631836
0.11730735003948212,9.975560188293457,2.2015371322631836
0.1170300766825676,9.975687026977539,2.2035071849823
0.10271573811769485,9.972493171691895,2.3187360763549805
0.07171306014060974,9.989734649658203,2.404263734817505
0.09095969796180725,9.98471450805664,2.5380146503448486
0.10145773738622665,9.966963768005371,2.549375295639038
0.09380128234624863,9.99174690246582,2.3988606929779053
0.10800810903310776,9.937573432922363,2.393136739730835
0.13374949991703033,9.941069602966309,2.344113826751709
0.13076703250408173,9.979724884033203,2.2309837341308594
