"(0.6, 0.0, 0.006)"
"(2.4, 0.0, 0.030000000000000006)"
"(3.0, 0, 0.0375)"
0.007782449945807457,9.413980484008789,-0.11712358891963959
0.003350420156493783,9.453580856323242,0.04600865766406059
-0.060687754303216934,9.45176887512207,0.03460700064897537
-0.018612345680594444,9.44812297821045,0.015482557937502861
-0.05128192901611328,9.460419654846191,-0.06288573145866394
-0.06185023486614227,9.410653114318848,-0.13162362575531006
-0.08317502588033676,9.443608283996582,0.02931915409862995
-0.05625755339860916,9.418181419372559,0.01769336126744747
-0.04388497769832611,9.463313102722168,-0.23187319934368134
-0.0028221711982041597,9.441676139831543,0.05274736136198044
0.015486985445022583,9.447765350341797,0.061315037310123444
0.011021952144801617,9.418042182922363,0.05724146217107773
-0.07652575522661209,9.432246208190918,-0.02825893461704254
-0.030420759692788124,9.454285621643066,0.004614171572029591
-0.0626155436038971,9.460785865783691,-0.13600929081439972
-0.059548188000917435,9.430937767028809,-0.13212892413139343
-0.09485326707363129,9.438277244567871,0.07403894513845444
-0.0882054939866066,9.50069522857666,0.060907602310180664
-0.059915412217378616,9.477339744567871,-0.23509855568408966
-0.037900660187006,9.409407615661621,0.08423639088869095
-0.08050604164600372,9.456235885620117,-0.3430105745792389
-0.046849917620420456,9.384201049804688,-0.020695962011814117
-6.395339732989669e-05,9.441729545593262,0.01377020962536335
-0.05533977970480919,9.417757987976074,0.04218214750289917
-0.00679439352825284,9.42435359954834,0.060914184898138046
-0.0266828965395689,9.433500289916992,-0.10314896702766418
-0.006618672516196966,9.442561149597168,-0.1510375589132309
0.007678001653403044,9.375968933105469,-0.09041262418031693
-0.05961591750383377,9.456755638122559,0.015541458502411842
-0.03648184984922409,9.432049751281738,-0.08820664882659912
-0.09042547643184662,9.443290710449219,-0.2469322830438614
-0.015495453029870987,9.436697006225586,0.05596122890710831
0.04980636388063431,9.451711654663086,0.06786759942770004
0.03283010423183441,9.445186614990234,0.04199739173054695
0.05993116274476051,9.403736114501953,-0.05953429639339447
-0.07797697931528091,9.428028106689453,0.020651238039135933
-0.0906689465045929,9.423828125,0.06312106549739838
-0.02024778164923191,9.442728042602539,-0.03756162151694298
0.02757195755839348,9.482128143310547,0.03635910898447037
0.05155538022518158,9.410991668701172,0.08658801764249802
-0.06385327875614166,9.457571029663086,-0.03632024675607681
-0.09595253318548203,9.410638809204102,-0.0017495425418019295
-0.0007898684125393629,9.434754371643066,-0.060062799602746964
-0.020447121933102608,9.457093238830566,-0.04732759669423103
0.002671724185347557,9.50163745880127,-0.09977977722883224
-0.0040750810876488686,9.462355613708496,0.03863551467657089
0.04439733177423477,9.403825759887695,0.02892357110977173
-0.04185764491558075,9.482813835144043,-0.07237177342176437
0.004900931380689144,9.450119972229004,0.1252894103527069
-0.028766373172402382,9.34698486328125,0.0043157064355909824
-0.026051027700304985,9.470440864562988,-0.1431184858083725
-0.02360086888074875,9.443361282348633,0.021026011556386948
-0.02427094429731369,9.48108959197998,0.057670217007398605
-0.04009116441011429,9.443462371826172,0.01413344033062458
-0.06038584187626839,9.46039867401123,-0.07704661041498184
-0.05356764793395996,9.466452598571777,-0.012656429782509804
-0.03772279620170593,9.483716011047363,-0.17715507745742798
-0.042737603187561035,9.387648582458496,-0.08554859459400177
0.03217095136642456,9.418577194213867,-0.018396412953734398
-0.03009774722158909,9.434481620788574,0.07915975153446198
-0.03262351453304291,9.408145904541016,-0.04149400815367699
-0.04312383383512497,9.394058227539062,-0.017108185216784477
-0.012055360712110996,9.39016056060791,-0.08240611851215363
-0.046136632561683655,9.391853332519531,-0.04498612880706787
-0.05651920288801193,9.456413269042969,-0.13404513895511627
-0.014060516841709614,9.411846160888672,-0.17407570779323578
0.02635224722325802,9.443031311035156,-0.15625259280204773
-0.05352335795760155,9.409516334533691,-0.14164069294929504
-0.027105575427412987,9.476632118225098,0.06881483644247055
-0.0161242987960577,9.42500114440918,0.02710302174091339
0.013707460835576057,9.413359642028809,0.06569459289312363
0.0022162506356835365,9.416625022888184,0.04141755774617195
-0.031351588666439056,9.387107849121094,-0.023404639214277267
-0.08053876459598541,9.49653148651123,-0.018259190022945404
-0.03320065513253212,9.4468355178833,0.08993718773126602
-0.03992404043674469,9.453547477722168,0.040613334625959396
-0.08866444230079651,9.485450744628906,-0.01147035788744688
0.024053357541561127,9.406150817871094,-0.0478823259472847
-0.0595398023724556,9.442314147949219,-0.07121841609477997
-0.01045705284923315,9.428611755371094,0.06023389473557472
-0.051126718521118164,9.478333473205566,0.10937795042991638
-0.06976736336946487,9.440391540527344,0.07763861864805222
-0.05908751115202904,9.447307586669922,0.0879393070936203
-0.061298903077840805,9.423781394958496,-0.4267888069152832
-0.010848265141248703,9.434889793395996,-0.12505806982517242
-0.03102651983499527,9.412210464477539,-0.13489246368408203
-0.04484085738658905,9.406099319458008,0.08936761319637299
-0.07060308754444122,9.384574890136719,0.04139944165945053
-0.07373194396495819,9.435107231140137,-0.01847001165151596
-0.054293856024742126,9.41236686706543,-0.1398787498474121
-0.04164358973503113,9.403924942016602,0.019349481910467148
-0.03399430215358734,9.390162467956543,-0.3901115655899048
0.03331611678004265,9.455808639526367,-0.07065562903881073
-0.02837219275534153,9.443241119384766,-0.13044680655002594
-0.03889194503426552,9.316455841064453,-0.22241435945034027
-0.02126123756170273,9.471598625183105,0.11356595158576965
-0.040232617408037186,9.423200607299805,-0.25024786591529846
-0.026577331125736237,9.469141960144043,0.04279027879238129
0.00982741080224514,9.447789192199707,0.07451339066028595
-0.0476263090968132,9.433305740356445,0.09696007519960403
